===========================================================================================================================================================
INPUTS:
===========================================================================================================================================================

 Settings = [

    game                  = 'cart_pole',
    verbose               = True,
    log                   = True,
    log_frequency         = 1,
    plot_single           = True,
    compare_all_plot      = True,
    incremental_saving    = True,
    save_as_pytorch       = False,
    anti_stagnation       = False,
    use_temp              = True,
    load_weights_path     = '',
    visualize_best_at_end = False,
    only_better           = False,
    scale_by_weight       = False,
    diversity             = False,
    output_folder         = '../../Results/2024-07-25/cart_pole_09-20-17',
    output_file           = '../../Results/2024-07-25/cart_pole_09-20-17/run_1'

 ]

 Functions = [

    run        = 'run',
    generation = 'generation_partitioned',
    selection  = 'ranking_selection',
    crossover  = 'crossover_rand',
    mutation   = 'mutation_rand_all'

 ]

 Parameters = [

    population_size  = 32,
    max_generation   = 500,
    mutation_rate    = 0.3,
    crossover_rate   = 0.5,
    start_temp       = 100,
    decay_temp       = 0.02,
    keep_best        = 2,
    calc_fitness_rep = 1,
    selection_pow    = 1.2

 ]

===========================================================================================================================================================
OUTPUTS:
===========================================================================================================================================================

| Gen: 00000 | Mean:    28.4 | Min:    24.0 | Max:    35.0 | Temp: 100.000 | Div:     nan |
| Gen: 00001 | Mean:    31.3 | Min:    21.0 | Max:    66.0 | Temp:  98.020 | Div:     nan |
| Gen: 00002 | Mean:    35.2 | Min:    22.0 | Max:    64.0 | Temp:  96.079 | Div:     nan |
| Gen: 00003 | Mean:    52.9 | Min:    25.0 | Max:   139.0 | Temp:  94.176 | Div:     nan |
| Gen: 00004 | Mean:    56.3 | Min:    32.0 | Max:   132.0 | Temp:  92.312 | Div:     nan |
| Gen: 00005 | Mean:    75.1 | Min:    39.0 | Max:   227.0 | Temp:  90.484 | Div:     nan |
| Gen: 00006 | Mean:   114.0 | Min:    37.0 | Max:   600.0 | Temp:  88.692 | Div:     nan |
| Gen: 00007 | Mean:   147.9 | Min:    41.0 | Max:   600.0 | Temp:  86.936 | Div:     nan |
| Gen: 00008 | Mean:   171.1 | Min:    43.0 | Max:   600.0 | Temp:  85.214 | Div:     nan |
| Gen: 00009 | Mean:   122.5 | Min:    70.0 | Max:   358.0 | Temp:  83.527 | Div:     nan |
| Gen: 00010 | Mean:   118.1 | Min:    65.0 | Max:   264.0 | Temp:  81.873 | Div:     nan |
| Gen: 00011 | Mean:   134.4 | Min:    76.0 | Max:   346.0 | Temp:  80.252 | Div:     nan |
| Gen: 00012 | Mean:   168.2 | Min:    76.0 | Max:   600.0 | Temp:  78.663 | Div:     nan |
| Gen: 00013 | Mean:   146.5 | Min:    83.0 | Max:   336.0 | Temp:  77.105 | Div:     nan |
| Gen: 00014 | Mean:   148.5 | Min:    82.0 | Max:   341.0 | Temp:  75.578 | Div:     nan |
| Gen: 00015 | Mean:   152.3 | Min:    86.0 | Max:   330.0 | Temp:  74.082 | Div:     nan |
| Gen: 00016 | Mean:   169.4 | Min:    98.0 | Max:   294.0 | Temp:  72.615 | Div:     nan |
| Gen: 00017 | Mean:   172.2 | Min:    59.0 | Max:   289.0 | Temp:  71.177 | Div:     nan |
| Gen: 00018 | Mean:   226.9 | Min:   124.0 | Max:   600.0 | Temp:  69.768 | Div:     nan |
| Gen: 00019 | Mean:   272.2 | Min:   122.0 | Max:   600.0 | Temp:  68.386 | Div:     nan |
| Gen: 00020 | Mean:   279.8 | Min:   131.0 | Max:   600.0 | Temp:  67.032 | Div:     nan |
| Gen: 00021 | Mean:   325.7 | Min:   182.0 | Max:   600.0 | Temp:  65.705 | Div:     nan |
| Gen: 00022 | Mean:   346.3 | Min:   205.0 | Max:   600.0 | Temp:  64.404 | Div:     nan |
| Gen: 00023 | Mean:   379.3 | Min:   219.0 | Max:   600.0 | Temp:  63.128 | Div:     nan |
| Gen: 00024 | Mean:   418.9 | Min:   216.0 | Max:   600.0 | Temp:  61.878 | Div:     nan |
| Gen: 00025 | Mean:   449.8 | Min:   256.0 | Max:   600.0 | Temp:  60.653 | Div:     nan |
| Gen: 00026 | Mean:   488.6 | Min:   261.0 | Max:   600.0 | Temp:  59.452 | Div:     nan |
| Gen: 00027 | Mean:   451.1 | Min:   241.0 | Max:   600.0 | Temp:  58.275 | Div:     nan |
| Gen: 00028 | Mean:   490.8 | Min:   304.0 | Max:   600.0 | Temp:  57.121 | Div:     nan |
| Gen: 00029 | Mean:   563.8 | Min:   397.0 | Max:   600.0 | Temp:  55.990 | Div:     nan |
| Gen: 00030 | Mean:   599.9 | Min:   599.0 | Max:   600.0 | Temp:  54.881 | Div:     nan |
| Gen: 00031 | Mean:   600.0 | Min:   600.0 | Max:   600.0 | Temp:  53.794 | Div:     nan |
| Gen: 00032 | Mean:   600.0 | Min:   600.0 | Max:   600.0 | Temp:  52.729 | Div:     nan |
| Gen: 00033 | Mean:   600.0 | Min:   600.0 | Max:   600.0 | Temp:  51.685 | Div:     nan |
| Gen: 00034 | Mean:   600.0 | Min:   600.0 | Max:   600.0 | Temp:  50.662 | Div:     nan |
| Gen: 00035 | Mean:   600.0 | Min:   600.0 | Max:   600.0 | Temp:  49.659 | Div:     nan |
| Gen: 00036 | Mean:   600.0 | Min:   600.0 | Max:   600.0 | Temp:  48.675 | Div:     nan |
| Gen: 00037 | Mean:   600.0 | Min:   600.0 | Max:   600.0 | Temp:  47.711 | Div:     nan |
| Gen: 00038 | Mean:   600.0 | Min:   600.0 | Max:   600.0 | Temp:  46.767 | Div:     nan |
| Gen: 00039 | Mean:   587.7 | Min:   478.0 | Max:   600.0 | Temp:  45.841 | Div:     nan |
| Gen: 00040 | Mean:   600.0 | Min:   600.0 | Max:   600.0 | Temp:  44.933 | Div:     nan |
| Gen: 00041 | Mean:   600.0 | Min:   600.0 | Max:   600.0 | Temp:  44.043 | Div:     nan |
| Gen: 00042 | Mean:   600.0 | Min:   600.0 | Max:   600.0 | Temp:  43.171 | Div:     nan |
| Gen: 00043 | Mean:   600.0 | Min:   600.0 | Max:   600.0 | Temp:  42.316 | Div:     nan |
| Gen: 00044 | Mean:   600.0 | Min:   600.0 | Max:   600.0 | Temp:  41.478 | Div:     nan |
| Gen: 00045 | Mean:   600.0 | Min:   600.0 | Max:   600.0 | Temp:  40.657 | Div:     nan |
| Gen: 00046 | Mean:   600.0 | Min:   600.0 | Max:   600.0 | Temp:  39.852 | Div:     nan |
| Gen: 00047 | Mean:   600.0 | Min:   600.0 | Max:   600.0 | Temp:  39.063 | Div:     nan |
| Gen: 00048 | Mean:   600.0 | Min:   600.0 | Max:   600.0 | Temp:  38.289 | Div:     nan |
| Gen: 00049 | Mean:   600.0 | Min:   600.0 | Max:   600.0 | Temp:  37.531 | Div:     nan |
| Gen: 00050 | Mean:   600.0 | Min:   600.0 | Max:   600.0 | Temp:  36.788 | Div:     nan |
| Gen: 00051 | Mean:   600.0 | Min:   600.0 | Max:   600.0 | Temp:  36.059 | Div:     nan |
| Gen: 00052 | Mean:   600.0 | Min:   600.0 | Max:   600.0 | Temp:  35.345 | Div:     nan |
| Gen: 00053 | Mean:   600.0 | Min:   600.0 | Max:   600.0 | Temp:  34.646 | Div:     nan |
| Gen: 00054 | Mean:   600.0 | Min:   600.0 | Max:   600.0 | Temp:  33.960 | Div:     nan |
| Gen: 00055 | Mean:   600.0 | Min:   600.0 | Max:   600.0 | Temp:  33.287 | Div:     nan |
| Gen: 00056 | Mean:   600.0 | Min:   600.0 | Max:   600.0 | Temp:  32.628 | Div:     nan |
| Gen: 00057 | Mean:   600.0 | Min:   600.0 | Max:   600.0 | Temp:  31.982 | Div:     nan |
| Gen: 00058 | Mean:   600.0 | Min:   600.0 | Max:   600.0 | Temp:  31.349 | Div:     nan |
| Gen: 00059 | Mean:   600.0 | Min:   600.0 | Max:   600.0 | Temp:  30.728 | Div:     nan |
| Gen: 00060 | Mean:   600.0 | Min:   600.0 | Max:   600.0 | Temp:  30.119 | Div:     nan |
| Gen: 00061 | Mean:   600.0 | Min:   600.0 | Max:   600.0 | Temp:  29.523 | Div:     nan |
| Gen: 00062 | Mean:   600.0 | Min:   600.0 | Max:   600.0 | Temp:  28.938 | Div:     nan |
| Gen: 00063 | Mean:   600.0 | Min:   600.0 | Max:   600.0 | Temp:  28.365 | Div:     nan |
| Gen: 00064 | Mean:   600.0 | Min:   600.0 | Max:   600.0 | Temp:  27.804 | Div:     nan |
| Gen: 00065 | Mean:   600.0 | Min:   600.0 | Max:   600.0 | Temp:  27.253 | Div:     nan |
| Gen: 00066 | Mean:   600.0 | Min:   600.0 | Max:   600.0 | Temp:  26.714 | Div:     nan |
| Gen: 00067 | Mean:   600.0 | Min:   600.0 | Max:   600.0 | Temp:  26.185 | Div:     nan |
| Gen: 00068 | Mean:   600.0 | Min:   600.0 | Max:   600.0 | Temp:  25.666 | Div:     nan |
| Gen: 00069 | Mean:   600.0 | Min:   600.0 | Max:   600.0 | Temp:  25.158 | Div:     nan |
| Gen: 00070 | Mean:   600.0 | Min:   600.0 | Max:   600.0 | Temp:  24.660 | Div:     nan |
| Gen: 00071 | Mean:   600.0 | Min:   600.0 | Max:   600.0 | Temp:  24.171 | Div:     nan |
| Gen: 00072 | Mean:   600.0 | Min:   600.0 | Max:   600.0 | Temp:  23.693 | Div:     nan |
| Gen: 00073 | Mean:   600.0 | Min:   600.0 | Max:   600.0 | Temp:  23.224 | Div:     nan |
| Gen: 00074 | Mean:   600.0 | Min:   600.0 | Max:   600.0 | Temp:  22.764 | Div:     nan |
| Gen: 00075 | Mean:   600.0 | Min:   600.0 | Max:   600.0 | Temp:  22.313 | Div:     nan |
| Gen: 00076 | Mean:   600.0 | Min:   600.0 | Max:   600.0 | Temp:  21.871 | Div:     nan |
| Gen: 00077 | Mean:   600.0 | Min:   600.0 | Max:   600.0 | Temp:  21.438 | Div:     nan |
| Gen: 00078 | Mean:   600.0 | Min:   600.0 | Max:   600.0 | Temp:  21.014 | Div:     nan |
| Gen: 00079 | Mean:   600.0 | Min:   600.0 | Max:   600.0 | Temp:  20.598 | Div:     nan |
| Gen: 00080 | Mean:   600.0 | Min:   600.0 | Max:   600.0 | Temp:  20.190 | Div:     nan |
| Gen: 00081 | Mean:   600.0 | Min:   600.0 | Max:   600.0 | Temp:  19.790 | Div:     nan |
| Gen: 00082 | Mean:   600.0 | Min:   600.0 | Max:   600.0 | Temp:  19.398 | Div:     nan |
| Gen: 00083 | Mean:   600.0 | Min:   600.0 | Max:   600.0 | Temp:  19.014 | Div:     nan |
| Gen: 00084 | Mean:   600.0 | Min:   600.0 | Max:   600.0 | Temp:  18.637 | Div:     nan |
| Gen: 00085 | Mean:   600.0 | Min:   600.0 | Max:   600.0 | Temp:  18.268 | Div:     nan |
| Gen: 00086 | Mean:   600.0 | Min:   600.0 | Max:   600.0 | Temp:  17.907 | Div:     nan |
| Gen: 00087 | Mean:   600.0 | Min:   600.0 | Max:   600.0 | Temp:  17.552 | Div:     nan |
| Gen: 00088 | Mean:   600.0 | Min:   600.0 | Max:   600.0 | Temp:  17.204 | Div:     nan |
| Gen: 00089 | Mean:   600.0 | Min:   600.0 | Max:   600.0 | Temp:  16.864 | Div:     nan |
| Gen: 00090 | Mean:   600.0 | Min:   600.0 | Max:   600.0 | Temp:  16.530 | Div:     nan |
| Gen: 00091 | Mean:   600.0 | Min:   600.0 | Max:   600.0 | Temp:  16.203 | Div:     nan |
| Gen: 00092 | Mean:   600.0 | Min:   600.0 | Max:   600.0 | Temp:  15.882 | Div:     nan |
| Gen: 00093 | Mean:   600.0 | Min:   600.0 | Max:   600.0 | Temp:  15.567 | Div:     nan |
| Gen: 00094 | Mean:   600.0 | Min:   600.0 | Max:   600.0 | Temp:  15.259 | Div:     nan |
| Gen: 00095 | Mean:   600.0 | Min:   600.0 | Max:   600.0 | Temp:  14.957 | Div:     nan |
| Gen: 00096 | Mean:   600.0 | Min:   600.0 | Max:   600.0 | Temp:  14.661 | Div:     nan |
| Gen: 00097 | Mean:   600.0 | Min:   600.0 | Max:   600.0 | Temp:  14.370 | Div:     nan |
| Gen: 00098 | Mean:   600.0 | Min:   600.0 | Max:   600.0 | Temp:  14.086 | Div:     nan |
| Gen: 00099 | Mean:   600.0 | Min:   600.0 | Max:   600.0 | Temp:  13.807 | Div:     nan |
| Gen: 00100 | Mean:   600.0 | Min:   600.0 | Max:   600.0 | Temp:  13.534 | Div:     nan |
| Gen: 00101 | Mean:   600.0 | Min:   600.0 | Max:   600.0 | Temp:  13.266 | Div:     nan |
| Gen: 00102 | Mean:   600.0 | Min:   600.0 | Max:   600.0 | Temp:  13.003 | Div:     nan |
| Gen: 00103 | Mean:   600.0 | Min:   600.0 | Max:   600.0 | Temp:  12.745 | Div:     nan |
| Gen: 00104 | Mean:   600.0 | Min:   600.0 | Max:   600.0 | Temp:  12.493 | Div:     nan |
| Gen: 00105 | Mean:   600.0 | Min:   600.0 | Max:   600.0 | Temp:  12.246 | Div:     nan |
| Gen: 00106 | Mean:   600.0 | Min:   600.0 | Max:   600.0 | Temp:  12.003 | Div:     nan |
| Gen: 00107 | Mean:   600.0 | Min:   600.0 | Max:   600.0 | Temp:  11.765 | Div:     nan |
| Gen: 00108 | Mean:   600.0 | Min:   600.0 | Max:   600.0 | Temp:  11.533 | Div:     nan |
| Gen: 00109 | Mean:   600.0 | Min:   600.0 | Max:   600.0 | Temp:  11.304 | Div:     nan |
| Gen: 00110 | Mean:   600.0 | Min:   600.0 | Max:   600.0 | Temp:  11.080 | Div:     nan |
| Gen: 00111 | Mean:   600.0 | Min:   600.0 | Max:   600.0 | Temp:  10.861 | Div:     nan |
| Gen: 00112 | Mean:   600.0 | Min:   600.0 | Max:   600.0 | Temp:  10.646 | Div:     nan |
| Gen: 00113 | Mean:   600.0 | Min:   600.0 | Max:   600.0 | Temp:  10.435 | Div:     nan |
| Gen: 00114 | Mean:   600.0 | Min:   600.0 | Max:   600.0 | Temp:  10.228 | Div:     nan |
| Gen: 00115 | Mean:   600.0 | Min:   600.0 | Max:   600.0 | Temp:  10.026 | Div:     nan |
| Gen: 00116 | Mean:   600.0 | Min:   600.0 | Max:   600.0 | Temp:   9.827 | Div:     nan |
| Gen: 00117 | Mean:   600.0 | Min:   600.0 | Max:   600.0 | Temp:   9.633 | Div:     nan |
| Gen: 00118 | Mean:   600.0 | Min:   600.0 | Max:   600.0 | Temp:   9.442 | Div:     nan |
| Gen: 00119 | Mean:   600.0 | Min:   600.0 | Max:   600.0 | Temp:   9.255 | Div:     nan |
| Gen: 00120 | Mean:   600.0 | Min:   600.0 | Max:   600.0 | Temp:   9.072 | Div:     nan |
| Gen: 00121 | Mean:   600.0 | Min:   600.0 | Max:   600.0 | Temp:   8.892 | Div:     nan |
| Gen: 00122 | Mean:   600.0 | Min:   600.0 | Max:   600.0 | Temp:   8.716 | Div:     nan |
| Gen: 00123 | Mean:   600.0 | Min:   600.0 | Max:   600.0 | Temp:   8.543 | Div:     nan |
| Gen: 00124 | Mean:   600.0 | Min:   600.0 | Max:   600.0 | Temp:   8.374 | Div:     nan |
| Gen: 00125 | Mean:   600.0 | Min:   600.0 | Max:   600.0 | Temp:   8.208 | Div:     nan |
| Gen: 00126 | Mean:   600.0 | Min:   600.0 | Max:   600.0 | Temp:   8.046 | Div:     nan |
| Gen: 00127 | Mean:   600.0 | Min:   600.0 | Max:   600.0 | Temp:   7.887 | Div:     nan |
| Gen: 00128 | Mean:   600.0 | Min:   600.0 | Max:   600.0 | Temp:   7.730 | Div:     nan |
| Gen: 00129 | Mean:   600.0 | Min:   600.0 | Max:   600.0 | Temp:   7.577 | Div:     nan |
| Gen: 00130 | Mean:   600.0 | Min:   600.0 | Max:   600.0 | Temp:   7.427 | Div:     nan |
| Gen: 00131 | Mean:   600.0 | Min:   600.0 | Max:   600.0 | Temp:   7.280 | Div:     nan |
| Gen: 00132 | Mean:   600.0 | Min:   600.0 | Max:   600.0 | Temp:   7.136 | Div:     nan |
| Gen: 00133 | Mean:   600.0 | Min:   600.0 | Max:   600.0 | Temp:   6.995 | Div:     nan |
| Gen: 00134 | Mean:   600.0 | Min:   600.0 | Max:   600.0 | Temp:   6.856 | Div:     nan |
| Gen: 00135 | Mean:   600.0 | Min:   600.0 | Max:   600.0 | Temp:   6.721 | Div:     nan |
| Gen: 00136 | Mean:   600.0 | Min:   600.0 | Max:   600.0 | Temp:   6.587 | Div:     nan |
| Gen: 00137 | Mean:   600.0 | Min:   600.0 | Max:   600.0 | Temp:   6.457 | Div:     nan |
| Gen: 00138 | Mean:   600.0 | Min:   600.0 | Max:   600.0 | Temp:   6.329 | Div:     nan |
| Gen: 00139 | Mean:   600.0 | Min:   600.0 | Max:   600.0 | Temp:   6.204 | Div:     nan |
| Gen: 00140 | Mean:   600.0 | Min:   600.0 | Max:   600.0 | Temp:   6.081 | Div:     nan |
| Gen: 00141 | Mean:   600.0 | Min:   600.0 | Max:   600.0 | Temp:   5.961 | Div:     nan |
| Gen: 00142 | Mean:   600.0 | Min:   600.0 | Max:   600.0 | Temp:   5.843 | Div:     nan |
| Gen: 00143 | Mean:   600.0 | Min:   600.0 | Max:   600.0 | Temp:   5.727 | Div:     nan |
| Gen: 00144 | Mean:   600.0 | Min:   600.0 | Max:   600.0 | Temp:   5.613 | Div:     nan |
| Gen: 00145 | Mean:   600.0 | Min:   600.0 | Max:   600.0 | Temp:   5.502 | Div:     nan |
| Gen: 00146 | Mean:   600.0 | Min:   600.0 | Max:   600.0 | Temp:   5.393 | Div:     nan |
| Gen: 00147 | Mean:   600.0 | Min:   600.0 | Max:   600.0 | Temp:   5.287 | Div:     nan |
| Gen: 00148 | Mean:   600.0 | Min:   600.0 | Max:   600.0 | Temp:   5.182 | Div:     nan |
| Gen: 00149 | Mean:   600.0 | Min:   600.0 | Max:   600.0 | Temp:   5.079 | Div:     nan |
| Gen: 00150 | Mean:   600.0 | Min:   600.0 | Max:   600.0 | Temp:   4.979 | Div:     nan |
| Gen: 00151 | Mean:   600.0 | Min:   600.0 | Max:   600.0 | Temp:   4.880 | Div:     nan |
| Gen: 00152 | Mean:   600.0 | Min:   600.0 | Max:   600.0 | Temp:   4.783 | Div:     nan |
| Gen: 00153 | Mean:   600.0 | Min:   600.0 | Max:   600.0 | Temp:   4.689 | Div:     nan |
| Gen: 00154 | Mean:   600.0 | Min:   600.0 | Max:   600.0 | Temp:   4.596 | Div:     nan |
| Gen: 00155 | Mean:   600.0 | Min:   600.0 | Max:   600.0 | Temp:   4.505 | Div:     nan |
| Gen: 00156 | Mean:   600.0 | Min:   600.0 | Max:   600.0 | Temp:   4.416 | Div:     nan |
| Gen: 00157 | Mean:   600.0 | Min:   600.0 | Max:   600.0 | Temp:   4.328 | Div:     nan |
| Gen: 00158 | Mean:   600.0 | Min:   600.0 | Max:   600.0 | Temp:   4.243 | Div:     nan |
| Gen: 00159 | Mean:   600.0 | Min:   600.0 | Max:   600.0 | Temp:   4.159 | Div:     nan |
| Gen: 00160 | Mean:   600.0 | Min:   600.0 | Max:   600.0 | Temp:   4.076 | Div:     nan |
| Gen: 00161 | Mean:   600.0 | Min:   600.0 | Max:   600.0 | Temp:   3.996 | Div:     nan |
| Gen: 00162 | Mean:   600.0 | Min:   600.0 | Max:   600.0 | Temp:   3.916 | Div:     nan |
| Gen: 00163 | Mean:   600.0 | Min:   600.0 | Max:   600.0 | Temp:   3.839 | Div:     nan |
| Gen: 00164 | Mean:   600.0 | Min:   600.0 | Max:   600.0 | Temp:   3.763 | Div:     nan |
| Gen: 00165 | Mean:   600.0 | Min:   600.0 | Max:   600.0 | Temp:   3.688 | Div:     nan |
| Gen: 00166 | Mean:   600.0 | Min:   600.0 | Max:   600.0 | Temp:   3.615 | Div:     nan |
| Gen: 00167 | Mean:   600.0 | Min:   600.0 | Max:   600.0 | Temp:   3.544 | Div:     nan |
| Gen: 00168 | Mean:   600.0 | Min:   600.0 | Max:   600.0 | Temp:   3.474 | Div:     nan |
| Gen: 00169 | Mean:   600.0 | Min:   600.0 | Max:   600.0 | Temp:   3.405 | Div:     nan |
| Gen: 00170 | Mean:   600.0 | Min:   600.0 | Max:   600.0 | Temp:   3.337 | Div:     nan |
| Gen: 00171 | Mean:   600.0 | Min:   600.0 | Max:   600.0 | Temp:   3.271 | Div:     nan |
| Gen: 00172 | Mean:   600.0 | Min:   600.0 | Max:   600.0 | Temp:   3.206 | Div:     nan |
| Gen: 00173 | Mean:   600.0 | Min:   600.0 | Max:   600.0 | Temp:   3.143 | Div:     nan |
| Gen: 00174 | Mean:   600.0 | Min:   600.0 | Max:   600.0 | Temp:   3.081 | Div:     nan |
| Gen: 00175 | Mean:   600.0 | Min:   600.0 | Max:   600.0 | Temp:   3.020 | Div:     nan |
| Gen: 00176 | Mean:   600.0 | Min:   600.0 | Max:   600.0 | Temp:   2.960 | Div:     nan |
| Gen: 00177 | Mean:   600.0 | Min:   600.0 | Max:   600.0 | Temp:   2.901 | Div:     nan |
| Gen: 00178 | Mean:   600.0 | Min:   600.0 | Max:   600.0 | Temp:   2.844 | Div:     nan |
| Gen: 00179 | Mean:   600.0 | Min:   600.0 | Max:   600.0 | Temp:   2.788 | Div:     nan |
| Gen: 00180 | Mean:   600.0 | Min:   600.0 | Max:   600.0 | Temp:   2.732 | Div:     nan |
| Gen: 00181 | Mean:   600.0 | Min:   600.0 | Max:   600.0 | Temp:   2.678 | Div:     nan |
| Gen: 00182 | Mean:   600.0 | Min:   600.0 | Max:   600.0 | Temp:   2.625 | Div:     nan |
| Gen: 00183 | Mean:   600.0 | Min:   600.0 | Max:   600.0 | Temp:   2.573 | Div:     nan |
| Gen: 00184 | Mean:   600.0 | Min:   600.0 | Max:   600.0 | Temp:   2.522 | Div:     nan |
| Gen: 00185 | Mean:   600.0 | Min:   600.0 | Max:   600.0 | Temp:   2.472 | Div:     nan |
| Gen: 00186 | Mean:   600.0 | Min:   600.0 | Max:   600.0 | Temp:   2.423 | Div:     nan |
| Gen: 00187 | Mean:   600.0 | Min:   600.0 | Max:   600.0 | Temp:   2.375 | Div:     nan |
| Gen: 00188 | Mean:   600.0 | Min:   600.0 | Max:   600.0 | Temp:   2.328 | Div:     nan |
| Gen: 00189 | Mean:   600.0 | Min:   600.0 | Max:   600.0 | Temp:   2.282 | Div:     nan |
| Gen: 00190 | Mean:   600.0 | Min:   600.0 | Max:   600.0 | Temp:   2.237 | Div:     nan |
| Gen: 00191 | Mean:   600.0 | Min:   600.0 | Max:   600.0 | Temp:   2.193 | Div:     nan |
| Gen: 00192 | Mean:   600.0 | Min:   600.0 | Max:   600.0 | Temp:   2.149 | Div:     nan |
| Gen: 00193 | Mean:   600.0 | Min:   600.0 | Max:   600.0 | Temp:   2.107 | Div:     nan |
| Gen: 00194 | Mean:   600.0 | Min:   600.0 | Max:   600.0 | Temp:   2.065 | Div:     nan |
| Gen: 00195 | Mean:   600.0 | Min:   600.0 | Max:   600.0 | Temp:   2.024 | Div:     nan |
| Gen: 00196 | Mean:   600.0 | Min:   600.0 | Max:   600.0 | Temp:   1.984 | Div:     nan |
| Gen: 00197 | Mean:   600.0 | Min:   600.0 | Max:   600.0 | Temp:   1.945 | Div:     nan |
| Gen: 00198 | Mean:   600.0 | Min:   600.0 | Max:   600.0 | Temp:   1.906 | Div:     nan |
| Gen: 00199 | Mean:   600.0 | Min:   600.0 | Max:   600.0 | Temp:   1.869 | Div:     nan |
| Gen: 00200 | Mean:   600.0 | Min:   600.0 | Max:   600.0 | Temp:   1.832 | Div:     nan |
| Gen: 00201 | Mean:   600.0 | Min:   600.0 | Max:   600.0 | Temp:   1.795 | Div:     nan |
| Gen: 00202 | Mean:   600.0 | Min:   600.0 | Max:   600.0 | Temp:   1.760 | Div:     nan |
| Gen: 00203 | Mean:   600.0 | Min:   600.0 | Max:   600.0 | Temp:   1.725 | Div:     nan |
| Gen: 00204 | Mean:   600.0 | Min:   600.0 | Max:   600.0 | Temp:   1.691 | Div:     nan |
| Gen: 00205 | Mean:   600.0 | Min:   600.0 | Max:   600.0 | Temp:   1.657 | Div:     nan |
| Gen: 00206 | Mean:   600.0 | Min:   600.0 | Max:   600.0 | Temp:   1.624 | Div:     nan |
| Gen: 00207 | Mean:   600.0 | Min:   600.0 | Max:   600.0 | Temp:   1.592 | Div:     nan |
| Gen: 00208 | Mean:   600.0 | Min:   600.0 | Max:   600.0 | Temp:   1.561 | Div:     nan |
| Gen: 00209 | Mean:   600.0 | Min:   600.0 | Max:   600.0 | Temp:   1.530 | Div:     nan |
| Gen: 00210 | Mean:   600.0 | Min:   600.0 | Max:   600.0 | Temp:   1.500 | Div:     nan |
| Gen: 00211 | Mean:   600.0 | Min:   600.0 | Max:   600.0 | Temp:   1.470 | Div:     nan |
| Gen: 00212 | Mean:   600.0 | Min:   600.0 | Max:   600.0 | Temp:   1.441 | Div:     nan |
| Gen: 00213 | Mean:   600.0 | Min:   600.0 | Max:   600.0 | Temp:   1.412 | Div:     nan |
| Gen: 00214 | Mean:   600.0 | Min:   600.0 | Max:   600.0 | Temp:   1.384 | Div:     nan |
| Gen: 00215 | Mean:   600.0 | Min:   600.0 | Max:   600.0 | Temp:   1.357 | Div:     nan |
| Gen: 00216 | Mean:   600.0 | Min:   600.0 | Max:   600.0 | Temp:   1.330 | Div:     nan |
| Gen: 00217 | Mean:   600.0 | Min:   600.0 | Max:   600.0 | Temp:   1.304 | Div:     nan |
| Gen: 00218 | Mean:   600.0 | Min:   600.0 | Max:   600.0 | Temp:   1.278 | Div:     nan |
| Gen: 00219 | Mean:   600.0 | Min:   600.0 | Max:   600.0 | Temp:   1.253 | Div:     nan |
| Gen: 00220 | Mean:   600.0 | Min:   600.0 | Max:   600.0 | Temp:   1.228 | Div:     nan |
| Gen: 00221 | Mean:   600.0 | Min:   600.0 | Max:   600.0 | Temp:   1.203 | Div:     nan |
| Gen: 00222 | Mean:   600.0 | Min:   600.0 | Max:   600.0 | Temp:   1.180 | Div:     nan |
| Gen: 00223 | Mean:   600.0 | Min:   600.0 | Max:   600.0 | Temp:   1.156 | Div:     nan |
| Gen: 00224 | Mean:   600.0 | Min:   600.0 | Max:   600.0 | Temp:   1.133 | Div:     nan |
| Gen: 00225 | Mean:   600.0 | Min:   600.0 | Max:   600.0 | Temp:   1.111 | Div:     nan |
| Gen: 00226 | Mean:   600.0 | Min:   600.0 | Max:   600.0 | Temp:   1.089 | Div:     nan |
| Gen: 00227 | Mean:   600.0 | Min:   600.0 | Max:   600.0 | Temp:   1.067 | Div:     nan |
| Gen: 00228 | Mean:   600.0 | Min:   600.0 | Max:   600.0 | Temp:   1.046 | Div:     nan |
| Gen: 00229 | Mean:   600.0 | Min:   600.0 | Max:   600.0 | Temp:   1.025 | Div:     nan |
| Gen: 00230 | Mean:   600.0 | Min:   600.0 | Max:   600.0 | Temp:   1.005 | Div:     nan |
| Gen: 00231 | Mean:   600.0 | Min:   600.0 | Max:   600.0 | Temp:   0.985 | Div:     nan |
| Gen: 00232 | Mean:   600.0 | Min:   600.0 | Max:   600.0 | Temp:   0.966 | Div:     nan |
| Gen: 00233 | Mean:   600.0 | Min:   600.0 | Max:   600.0 | Temp:   0.947 | Div:     nan |
| Gen: 00234 | Mean:   600.0 | Min:   600.0 | Max:   600.0 | Temp:   0.928 | Div:     nan |
| Gen: 00235 | Mean:   600.0 | Min:   600.0 | Max:   600.0 | Temp:   0.910 | Div:     nan |
| Gen: 00236 | Mean:   600.0 | Min:   600.0 | Max:   600.0 | Temp:   0.892 | Div:     nan |
| Gen: 00237 | Mean:   600.0 | Min:   600.0 | Max:   600.0 | Temp:   0.874 | Div:     nan |
| Gen: 00238 | Mean:   600.0 | Min:   600.0 | Max:   600.0 | Temp:   0.857 | Div:     nan |
| Gen: 00239 | Mean:   600.0 | Min:   600.0 | Max:   600.0 | Temp:   0.840 | Div:     nan |
| Gen: 00240 | Mean:   600.0 | Min:   600.0 | Max:   600.0 | Temp:   0.823 | Div:     nan |
| Gen: 00241 | Mean:   600.0 | Min:   600.0 | Max:   600.0 | Temp:   0.807 | Div:     nan |
| Gen: 00242 | Mean:   600.0 | Min:   600.0 | Max:   600.0 | Temp:   0.791 | Div:     nan |
| Gen: 00243 | Mean:   600.0 | Min:   600.0 | Max:   600.0 | Temp:   0.775 | Div:     nan |
| Gen: 00244 | Mean:   600.0 | Min:   600.0 | Max:   600.0 | Temp:   0.760 | Div:     nan |
| Gen: 00245 | Mean:   600.0 | Min:   600.0 | Max:   600.0 | Temp:   0.745 | Div:     nan |
| Gen: 00246 | Mean:   600.0 | Min:   600.0 | Max:   600.0 | Temp:   0.730 | Div:     nan |
| Gen: 00247 | Mean:   600.0 | Min:   600.0 | Max:   600.0 | Temp:   0.715 | Div:     nan |
| Gen: 00248 | Mean:   600.0 | Min:   600.0 | Max:   600.0 | Temp:   0.701 | Div:     nan |
| Gen: 00249 | Mean:   600.0 | Min:   600.0 | Max:   600.0 | Temp:   0.687 | Div:     nan |
| Gen: 00250 | Mean:   600.0 | Min:   600.0 | Max:   600.0 | Temp:   0.674 | Div:     nan |
| Gen: 00251 | Mean:   600.0 | Min:   600.0 | Max:   600.0 | Temp:   0.660 | Div:     nan |
| Gen: 00252 | Mean:   600.0 | Min:   600.0 | Max:   600.0 | Temp:   0.647 | Div:     nan |
| Gen: 00253 | Mean:   600.0 | Min:   600.0 | Max:   600.0 | Temp:   0.635 | Div:     nan |
| Gen: 00254 | Mean:   600.0 | Min:   600.0 | Max:   600.0 | Temp:   0.622 | Div:     nan |
| Gen: 00255 | Mean:   600.0 | Min:   600.0 | Max:   600.0 | Temp:   0.610 | Div:     nan |
| Gen: 00256 | Mean:   600.0 | Min:   600.0 | Max:   600.0 | Temp:   0.598 | Div:     nan |
| Gen: 00257 | Mean:   600.0 | Min:   600.0 | Max:   600.0 | Temp:   0.586 | Div:     nan |
| Gen: 00258 | Mean:   600.0 | Min:   600.0 | Max:   600.0 | Temp:   0.574 | Div:     nan |
| Gen: 00259 | Mean:   600.0 | Min:   600.0 | Max:   600.0 | Temp:   0.563 | Div:     nan |
| Gen: 00260 | Mean:   600.0 | Min:   600.0 | Max:   600.0 | Temp:   0.552 | Div:     nan |
| Gen: 00261 | Mean:   600.0 | Min:   600.0 | Max:   600.0 | Temp:   0.541 | Div:     nan |
| Gen: 00262 | Mean:   600.0 | Min:   600.0 | Max:   600.0 | Temp:   0.530 | Div:     nan |
| Gen: 00263 | Mean:   600.0 | Min:   600.0 | Max:   600.0 | Temp:   0.520 | Div:     nan |
| Gen: 00264 | Mean:   600.0 | Min:   600.0 | Max:   600.0 | Temp:   0.509 | Div:     nan |
| Gen: 00265 | Mean:   600.0 | Min:   600.0 | Max:   600.0 | Temp:   0.499 | Div:     nan |
| Gen: 00266 | Mean:   600.0 | Min:   600.0 | Max:   600.0 | Temp:   0.489 | Div:     nan |
| Gen: 00267 | Mean:   600.0 | Min:   600.0 | Max:   600.0 | Temp:   0.480 | Div:     nan |
| Gen: 00268 | Mean:   600.0 | Min:   600.0 | Max:   600.0 | Temp:   0.470 | Div:     nan |
| Gen: 00269 | Mean:   600.0 | Min:   600.0 | Max:   600.0 | Temp:   0.461 | Div:     nan |
| Gen: 00270 | Mean:   600.0 | Min:   600.0 | Max:   600.0 | Temp:   0.452 | Div:     nan |
| Gen: 00271 | Mean:   600.0 | Min:   600.0 | Max:   600.0 | Temp:   0.443 | Div:     nan |
| Gen: 00272 | Mean:   600.0 | Min:   600.0 | Max:   600.0 | Temp:   0.434 | Div:     nan |
| Gen: 00273 | Mean:   600.0 | Min:   600.0 | Max:   600.0 | Temp:   0.425 | Div:     nan |
| Gen: 00274 | Mean:   600.0 | Min:   600.0 | Max:   600.0 | Temp:   0.417 | Div:     nan |
| Gen: 00275 | Mean:   600.0 | Min:   600.0 | Max:   600.0 | Temp:   0.409 | Div:     nan |
| Gen: 00276 | Mean:   600.0 | Min:   600.0 | Max:   600.0 | Temp:   0.401 | Div:     nan |
| Gen: 00277 | Mean:   600.0 | Min:   600.0 | Max:   600.0 | Temp:   0.393 | Div:     nan |
| Gen: 00278 | Mean:   600.0 | Min:   600.0 | Max:   600.0 | Temp:   0.385 | Div:     nan |
| Gen: 00279 | Mean:   600.0 | Min:   600.0 | Max:   600.0 | Temp:   0.377 | Div:     nan |
| Gen: 00280 | Mean:   600.0 | Min:   600.0 | Max:   600.0 | Temp:   0.370 | Div:     nan |
| Gen: 00281 | Mean:   600.0 | Min:   600.0 | Max:   600.0 | Temp:   0.362 | Div:     nan |
| Gen: 00282 | Mean:   600.0 | Min:   600.0 | Max:   600.0 | Temp:   0.355 | Div:     nan |
| Gen: 00283 | Mean:   600.0 | Min:   600.0 | Max:   600.0 | Temp:   0.348 | Div:     nan |
| Gen: 00284 | Mean:   600.0 | Min:   600.0 | Max:   600.0 | Temp:   0.341 | Div:     nan |
| Gen: 00285 | Mean:   600.0 | Min:   600.0 | Max:   600.0 | Temp:   0.335 | Div:     nan |
| Gen: 00286 | Mean:   600.0 | Min:   600.0 | Max:   600.0 | Temp:   0.328 | Div:     nan |
| Gen: 00287 | Mean:   600.0 | Min:   600.0 | Max:   600.0 | Temp:   0.321 | Div:     nan |
| Gen: 00288 | Mean:   600.0 | Min:   600.0 | Max:   600.0 | Temp:   0.315 | Div:     nan |
| Gen: 00289 | Mean:   600.0 | Min:   600.0 | Max:   600.0 | Temp:   0.309 | Div:     nan |
| Gen: 00290 | Mean:   600.0 | Min:   600.0 | Max:   600.0 | Temp:   0.303 | Div:     nan |
| Gen: 00291 | Mean:   600.0 | Min:   600.0 | Max:   600.0 | Temp:   0.297 | Div:     nan |
| Gen: 00292 | Mean:   600.0 | Min:   600.0 | Max:   600.0 | Temp:   0.291 | Div:     nan |
| Gen: 00293 | Mean:   600.0 | Min:   600.0 | Max:   600.0 | Temp:   0.285 | Div:     nan |
| Gen: 00294 | Mean:   600.0 | Min:   600.0 | Max:   600.0 | Temp:   0.279 | Div:     nan |
| Gen: 00295 | Mean:   600.0 | Min:   600.0 | Max:   600.0 | Temp:   0.274 | Div:     nan |
| Gen: 00296 | Mean:   600.0 | Min:   600.0 | Max:   600.0 | Temp:   0.269 | Div:     nan |
| Gen: 00297 | Mean:   600.0 | Min:   600.0 | Max:   600.0 | Temp:   0.263 | Div:     nan |
| Gen: 00298 | Mean:   600.0 | Min:   600.0 | Max:   600.0 | Temp:   0.258 | Div:     nan |
| Gen: 00299 | Mean:   600.0 | Min:   600.0 | Max:   600.0 | Temp:   0.253 | Div:     nan |
| Gen: 00300 | Mean:   600.0 | Min:   600.0 | Max:   600.0 | Temp:   0.248 | Div:     nan |
| Gen: 00301 | Mean:   600.0 | Min:   600.0 | Max:   600.0 | Temp:   0.243 | Div:     nan |
| Gen: 00302 | Mean:   600.0 | Min:   600.0 | Max:   600.0 | Temp:   0.238 | Div:     nan |
| Gen: 00303 | Mean:   600.0 | Min:   600.0 | Max:   600.0 | Temp:   0.233 | Div:     nan |
| Gen: 00304 | Mean:   600.0 | Min:   600.0 | Max:   600.0 | Temp:   0.229 | Div:     nan |
| Gen: 00305 | Mean:   600.0 | Min:   600.0 | Max:   600.0 | Temp:   0.224 | Div:     nan |
| Gen: 00306 | Mean:   600.0 | Min:   600.0 | Max:   600.0 | Temp:   0.220 | Div:     nan |
| Gen: 00307 | Mean:   600.0 | Min:   600.0 | Max:   600.0 | Temp:   0.215 | Div:     nan |
| Gen: 00308 | Mean:   600.0 | Min:   600.0 | Max:   600.0 | Temp:   0.211 | Div:     nan |
| Gen: 00309 | Mean:   600.0 | Min:   600.0 | Max:   600.0 | Temp:   0.207 | Div:     nan |
| Gen: 00310 | Mean:   600.0 | Min:   600.0 | Max:   600.0 | Temp:   0.203 | Div:     nan |
| Gen: 00311 | Mean:   600.0 | Min:   600.0 | Max:   600.0 | Temp:   0.199 | Div:     nan |
| Gen: 00312 | Mean:   600.0 | Min:   600.0 | Max:   600.0 | Temp:   0.195 | Div:     nan |
| Gen: 00313 | Mean:   600.0 | Min:   600.0 | Max:   600.0 | Temp:   0.191 | Div:     nan |
| Gen: 00314 | Mean:   600.0 | Min:   600.0 | Max:   600.0 | Temp:   0.187 | Div:     nan |
| Gen: 00315 | Mean:   600.0 | Min:   600.0 | Max:   600.0 | Temp:   0.184 | Div:     nan |
| Gen: 00316 | Mean:   600.0 | Min:   600.0 | Max:   600.0 | Temp:   0.180 | Div:     nan |
| Gen: 00317 | Mean:   600.0 | Min:   600.0 | Max:   600.0 | Temp:   0.176 | Div:     nan |
| Gen: 00318 | Mean:   600.0 | Min:   600.0 | Max:   600.0 | Temp:   0.173 | Div:     nan |
| Gen: 00319 | Mean:   600.0 | Min:   600.0 | Max:   600.0 | Temp:   0.170 | Div:     nan |
| Gen: 00320 | Mean:   600.0 | Min:   600.0 | Max:   600.0 | Temp:   0.166 | Div:     nan |
| Gen: 00321 | Mean:   600.0 | Min:   600.0 | Max:   600.0 | Temp:   0.163 | Div:     nan |
| Gen: 00322 | Mean:   600.0 | Min:   600.0 | Max:   600.0 | Temp:   0.160 | Div:     nan |
| Gen: 00323 | Mean:   600.0 | Min:   600.0 | Max:   600.0 | Temp:   0.156 | Div:     nan |
| Gen: 00324 | Mean:   600.0 | Min:   600.0 | Max:   600.0 | Temp:   0.153 | Div:     nan |
| Gen: 00325 | Mean:   600.0 | Min:   600.0 | Max:   600.0 | Temp:   0.150 | Div:     nan |
| Gen: 00326 | Mean:   600.0 | Min:   600.0 | Max:   600.0 | Temp:   0.147 | Div:     nan |
| Gen: 00327 | Mean:   600.0 | Min:   600.0 | Max:   600.0 | Temp:   0.144 | Div:     nan |
| Gen: 00328 | Mean:   600.0 | Min:   600.0 | Max:   600.0 | Temp:   0.142 | Div:     nan |
| Gen: 00329 | Mean:   600.0 | Min:   600.0 | Max:   600.0 | Temp:   0.139 | Div:     nan |
| Gen: 00330 | Mean:   600.0 | Min:   600.0 | Max:   600.0 | Temp:   0.136 | Div:     nan |
| Gen: 00331 | Mean:   600.0 | Min:   600.0 | Max:   600.0 | Temp:   0.133 | Div:     nan |
| Gen: 00332 | Mean:   600.0 | Min:   600.0 | Max:   600.0 | Temp:   0.131 | Div:     nan |
| Gen: 00333 | Mean:   600.0 | Min:   600.0 | Max:   600.0 | Temp:   0.128 | Div:     nan |
| Gen: 00334 | Mean:   600.0 | Min:   600.0 | Max:   600.0 | Temp:   0.126 | Div:     nan |
| Gen: 00335 | Mean:   600.0 | Min:   600.0 | Max:   600.0 | Temp:   0.123 | Div:     nan |
| Gen: 00336 | Mean:   600.0 | Min:   600.0 | Max:   600.0 | Temp:   0.121 | Div:     nan |
| Gen: 00337 | Mean:   600.0 | Min:   600.0 | Max:   600.0 | Temp:   0.118 | Div:     nan |
| Gen: 00338 | Mean:   600.0 | Min:   600.0 | Max:   600.0 | Temp:   0.116 | Div:     nan |
| Gen: 00339 | Mean:   600.0 | Min:   600.0 | Max:   600.0 | Temp:   0.114 | Div:     nan |
| Gen: 00340 | Mean:   600.0 | Min:   600.0 | Max:   600.0 | Temp:   0.111 | Div:     nan |
| Gen: 00341 | Mean:   600.0 | Min:   600.0 | Max:   600.0 | Temp:   0.109 | Div:     nan |
| Gen: 00342 | Mean:   600.0 | Min:   600.0 | Max:   600.0 | Temp:   0.107 | Div:     nan |
| Gen: 00343 | Mean:   600.0 | Min:   600.0 | Max:   600.0 | Temp:   0.105 | Div:     nan |
| Gen: 00344 | Mean:   600.0 | Min:   600.0 | Max:   600.0 | Temp:   0.103 | Div:     nan |
| Gen: 00345 | Mean:   600.0 | Min:   600.0 | Max:   600.0 | Temp:   0.101 | Div:     nan |
| Gen: 00346 | Mean:   600.0 | Min:   600.0 | Max:   600.0 | Temp:   0.099 | Div:     nan |
| Gen: 00347 | Mean:   600.0 | Min:   600.0 | Max:   600.0 | Temp:   0.097 | Div:     nan |
| Gen: 00348 | Mean:   600.0 | Min:   600.0 | Max:   600.0 | Temp:   0.095 | Div:     nan |
| Gen: 00349 | Mean:   600.0 | Min:   600.0 | Max:   600.0 | Temp:   0.093 | Div:     nan |
| Gen: 00350 | Mean:   600.0 | Min:   600.0 | Max:   600.0 | Temp:   0.091 | Div:     nan |
| Gen: 00351 | Mean:   600.0 | Min:   600.0 | Max:   600.0 | Temp:   0.089 | Div:     nan |
| Gen: 00352 | Mean:   600.0 | Min:   600.0 | Max:   600.0 | Temp:   0.088 | Div:     nan |
| Gen: 00353 | Mean:   600.0 | Min:   600.0 | Max:   600.0 | Temp:   0.086 | Div:     nan |
| Gen: 00354 | Mean:   600.0 | Min:   600.0 | Max:   600.0 | Temp:   0.084 | Div:     nan |
| Gen: 00355 | Mean:   600.0 | Min:   600.0 | Max:   600.0 | Temp:   0.083 | Div:     nan |
| Gen: 00356 | Mean:   600.0 | Min:   600.0 | Max:   600.0 | Temp:   0.081 | Div:     nan |
| Gen: 00357 | Mean:   600.0 | Min:   600.0 | Max:   600.0 | Temp:   0.079 | Div:     nan |
| Gen: 00358 | Mean:   600.0 | Min:   600.0 | Max:   600.0 | Temp:   0.078 | Div:     nan |
| Gen: 00359 | Mean:   600.0 | Min:   600.0 | Max:   600.0 | Temp:   0.076 | Div:     nan |
| Gen: 00360 | Mean:   600.0 | Min:   600.0 | Max:   600.0 | Temp:   0.075 | Div:     nan |
| Gen: 00361 | Mean:   600.0 | Min:   600.0 | Max:   600.0 | Temp:   0.073 | Div:     nan |
| Gen: 00362 | Mean:   600.0 | Min:   600.0 | Max:   600.0 | Temp:   0.072 | Div:     nan |
| Gen: 00363 | Mean:   600.0 | Min:   600.0 | Max:   600.0 | Temp:   0.070 | Div:     nan |
| Gen: 00364 | Mean:   600.0 | Min:   600.0 | Max:   600.0 | Temp:   0.069 | Div:     nan |
| Gen: 00365 | Mean:   600.0 | Min:   600.0 | Max:   600.0 | Temp:   0.068 | Div:     nan |
| Gen: 00366 | Mean:   600.0 | Min:   600.0 | Max:   600.0 | Temp:   0.066 | Div:     nan |
| Gen: 00367 | Mean:   600.0 | Min:   600.0 | Max:   600.0 | Temp:   0.065 | Div:     nan |
| Gen: 00368 | Mean:   600.0 | Min:   600.0 | Max:   600.0 | Temp:   0.064 | Div:     nan |
| Gen: 00369 | Mean:   600.0 | Min:   600.0 | Max:   600.0 | Temp:   0.062 | Div:     nan |
| Gen: 00370 | Mean:   600.0 | Min:   600.0 | Max:   600.0 | Temp:   0.061 | Div:     nan |
| Gen: 00371 | Mean:   600.0 | Min:   600.0 | Max:   600.0 | Temp:   0.060 | Div:     nan |
| Gen: 00372 | Mean:   600.0 | Min:   600.0 | Max:   600.0 | Temp:   0.059 | Div:     nan |
| Gen: 00373 | Mean:   600.0 | Min:   600.0 | Max:   600.0 | Temp:   0.058 | Div:     nan |
| Gen: 00374 | Mean:   600.0 | Min:   600.0 | Max:   600.0 | Temp:   0.056 | Div:     nan |
| Gen: 00375 | Mean:   600.0 | Min:   600.0 | Max:   600.0 | Temp:   0.055 | Div:     nan |
| Gen: 00376 | Mean:   600.0 | Min:   600.0 | Max:   600.0 | Temp:   0.054 | Div:     nan |
| Gen: 00377 | Mean:   600.0 | Min:   600.0 | Max:   600.0 | Temp:   0.053 | Div:     nan |
| Gen: 00378 | Mean:   600.0 | Min:   600.0 | Max:   600.0 | Temp:   0.052 | Div:     nan |
| Gen: 00379 | Mean:   600.0 | Min:   600.0 | Max:   600.0 | Temp:   0.051 | Div:     nan |
| Gen: 00380 | Mean:   600.0 | Min:   600.0 | Max:   600.0 | Temp:   0.050 | Div:     nan |
| Gen: 00381 | Mean:   600.0 | Min:   600.0 | Max:   600.0 | Temp:   0.049 | Div:     nan |
| Gen: 00382 | Mean:   600.0 | Min:   600.0 | Max:   600.0 | Temp:   0.048 | Div:     nan |
| Gen: 00383 | Mean:   600.0 | Min:   600.0 | Max:   600.0 | Temp:   0.047 | Div:     nan |
| Gen: 00384 | Mean:   600.0 | Min:   600.0 | Max:   600.0 | Temp:   0.046 | Div:     nan |
| Gen: 00385 | Mean:   600.0 | Min:   600.0 | Max:   600.0 | Temp:   0.045 | Div:     nan |
| Gen: 00386 | Mean:   600.0 | Min:   600.0 | Max:   600.0 | Temp:   0.044 | Div:     nan |
| Gen: 00387 | Mean:   600.0 | Min:   600.0 | Max:   600.0 | Temp:   0.044 | Div:     nan |
| Gen: 00388 | Mean:   600.0 | Min:   600.0 | Max:   600.0 | Temp:   0.043 | Div:     nan |
| Gen: 00389 | Mean:   600.0 | Min:   600.0 | Max:   600.0 | Temp:   0.042 | Div:     nan |
| Gen: 00390 | Mean:   600.0 | Min:   600.0 | Max:   600.0 | Temp:   0.041 | Div:     nan |
| Gen: 00391 | Mean:   600.0 | Min:   600.0 | Max:   600.0 | Temp:   0.040 | Div:     nan |
| Gen: 00392 | Mean:   600.0 | Min:   600.0 | Max:   600.0 | Temp:   0.039 | Div:     nan |
| Gen: 00393 | Mean:   600.0 | Min:   600.0 | Max:   600.0 | Temp:   0.039 | Div:     nan |
| Gen: 00394 | Mean:   600.0 | Min:   600.0 | Max:   600.0 | Temp:   0.038 | Div:     nan |
| Gen: 00395 | Mean:   600.0 | Min:   600.0 | Max:   600.0 | Temp:   0.037 | Div:     nan |
| Gen: 00396 | Mean:   600.0 | Min:   600.0 | Max:   600.0 | Temp:   0.036 | Div:     nan |
| Gen: 00397 | Mean:   600.0 | Min:   600.0 | Max:   600.0 | Temp:   0.036 | Div:     nan |
| Gen: 00398 | Mean:   600.0 | Min:   600.0 | Max:   600.0 | Temp:   0.035 | Div:     nan |
| Gen: 00399 | Mean:   600.0 | Min:   600.0 | Max:   600.0 | Temp:   0.034 | Div:     nan |
| Gen: 00400 | Mean:   600.0 | Min:   600.0 | Max:   600.0 | Temp:   0.034 | Div:     nan |
| Gen: 00401 | Mean:   600.0 | Min:   600.0 | Max:   600.0 | Temp:   0.033 | Div:     nan |
| Gen: 00402 | Mean:   600.0 | Min:   600.0 | Max:   600.0 | Temp:   0.032 | Div:     nan |
| Gen: 00403 | Mean:   600.0 | Min:   600.0 | Max:   600.0 | Temp:   0.032 | Div:     nan |
| Gen: 00404 | Mean:   600.0 | Min:   600.0 | Max:   600.0 | Temp:   0.031 | Div:     nan |
| Gen: 00405 | Mean:   600.0 | Min:   600.0 | Max:   600.0 | Temp:   0.030 | Div:     nan |
| Gen: 00406 | Mean:   600.0 | Min:   600.0 | Max:   600.0 | Temp:   0.030 | Div:     nan |
| Gen: 00407 | Mean:   600.0 | Min:   600.0 | Max:   600.0 | Temp:   0.029 | Div:     nan |
| Gen: 00408 | Mean:   600.0 | Min:   600.0 | Max:   600.0 | Temp:   0.029 | Div:     nan |
| Gen: 00409 | Mean:   600.0 | Min:   600.0 | Max:   600.0 | Temp:   0.028 | Div:     nan |
| Gen: 00410 | Mean:   600.0 | Min:   600.0 | Max:   600.0 | Temp:   0.027 | Div:     nan |
| Gen: 00411 | Mean:   600.0 | Min:   600.0 | Max:   600.0 | Temp:   0.027 | Div:     nan |
| Gen: 00412 | Mean:   600.0 | Min:   600.0 | Max:   600.0 | Temp:   0.026 | Div:     nan |
| Gen: 00413 | Mean:   600.0 | Min:   600.0 | Max:   600.0 | Temp:   0.026 | Div:     nan |
| Gen: 00414 | Mean:   600.0 | Min:   600.0 | Max:   600.0 | Temp:   0.025 | Div:     nan |
| Gen: 00415 | Mean:   600.0 | Min:   600.0 | Max:   600.0 | Temp:   0.025 | Div:     nan |
| Gen: 00416 | Mean:   600.0 | Min:   600.0 | Max:   600.0 | Temp:   0.024 | Div:     nan |
| Gen: 00417 | Mean:   600.0 | Min:   600.0 | Max:   600.0 | Temp:   0.024 | Div:     nan |
| Gen: 00418 | Mean:   600.0 | Min:   600.0 | Max:   600.0 | Temp:   0.023 | Div:     nan |
| Gen: 00419 | Mean:   600.0 | Min:   600.0 | Max:   600.0 | Temp:   0.023 | Div:     nan |
| Gen: 00420 | Mean:   600.0 | Min:   600.0 | Max:   600.0 | Temp:   0.022 | Div:     nan |
| Gen: 00421 | Mean:   600.0 | Min:   600.0 | Max:   600.0 | Temp:   0.022 | Div:     nan |
| Gen: 00422 | Mean:   600.0 | Min:   600.0 | Max:   600.0 | Temp:   0.022 | Div:     nan |
| Gen: 00423 | Mean:   600.0 | Min:   600.0 | Max:   600.0 | Temp:   0.021 | Div:     nan |
| Gen: 00424 | Mean:   600.0 | Min:   600.0 | Max:   600.0 | Temp:   0.021 | Div:     nan |
| Gen: 00425 | Mean:   600.0 | Min:   600.0 | Max:   600.0 | Temp:   0.020 | Div:     nan |
| Gen: 00426 | Mean:   600.0 | Min:   600.0 | Max:   600.0 | Temp:   0.020 | Div:     nan |
| Gen: 00427 | Mean:   600.0 | Min:   600.0 | Max:   600.0 | Temp:   0.020 | Div:     nan |
| Gen: 00428 | Mean:   600.0 | Min:   600.0 | Max:   600.0 | Temp:   0.019 | Div:     nan |
| Gen: 00429 | Mean:   600.0 | Min:   600.0 | Max:   600.0 | Temp:   0.019 | Div:     nan |
| Gen: 00430 | Mean:   600.0 | Min:   600.0 | Max:   600.0 | Temp:   0.018 | Div:     nan |
| Gen: 00431 | Mean:   600.0 | Min:   600.0 | Max:   600.0 | Temp:   0.018 | Div:     nan |
| Gen: 00432 | Mean:   600.0 | Min:   600.0 | Max:   600.0 | Temp:   0.018 | Div:     nan |
| Gen: 00433 | Mean:   600.0 | Min:   600.0 | Max:   600.0 | Temp:   0.017 | Div:     nan |
| Gen: 00434 | Mean:   600.0 | Min:   600.0 | Max:   600.0 | Temp:   0.017 | Div:     nan |
| Gen: 00435 | Mean:   600.0 | Min:   600.0 | Max:   600.0 | Temp:   0.017 | Div:     nan |
| Gen: 00436 | Mean:   600.0 | Min:   600.0 | Max:   600.0 | Temp:   0.016 | Div:     nan |
| Gen: 00437 | Mean:   600.0 | Min:   600.0 | Max:   600.0 | Temp:   0.016 | Div:     nan |
| Gen: 00438 | Mean:   600.0 | Min:   600.0 | Max:   600.0 | Temp:   0.016 | Div:     nan |
| Gen: 00439 | Mean:   600.0 | Min:   600.0 | Max:   600.0 | Temp:   0.015 | Div:     nan |
| Gen: 00440 | Mean:   600.0 | Min:   600.0 | Max:   600.0 | Temp:   0.015 | Div:     nan |
| Gen: 00441 | Mean:   600.0 | Min:   600.0 | Max:   600.0 | Temp:   0.015 | Div:     nan |
| Gen: 00442 | Mean:   600.0 | Min:   600.0 | Max:   600.0 | Temp:   0.014 | Div:     nan |
| Gen: 00443 | Mean:   600.0 | Min:   600.0 | Max:   600.0 | Temp:   0.014 | Div:     nan |
| Gen: 00444 | Mean:   600.0 | Min:   600.0 | Max:   600.0 | Temp:   0.014 | Div:     nan |
| Gen: 00445 | Mean:   600.0 | Min:   600.0 | Max:   600.0 | Temp:   0.014 | Div:     nan |
| Gen: 00446 | Mean:   600.0 | Min:   600.0 | Max:   600.0 | Temp:   0.013 | Div:     nan |
| Gen: 00447 | Mean:   600.0 | Min:   600.0 | Max:   600.0 | Temp:   0.013 | Div:     nan |
| Gen: 00448 | Mean:   600.0 | Min:   600.0 | Max:   600.0 | Temp:   0.013 | Div:     nan |
| Gen: 00449 | Mean:   600.0 | Min:   600.0 | Max:   600.0 | Temp:   0.013 | Div:     nan |
| Gen: 00450 | Mean:   600.0 | Min:   600.0 | Max:   600.0 | Temp:   0.012 | Div:     nan |
| Gen: 00451 | Mean:   600.0 | Min:   600.0 | Max:   600.0 | Temp:   0.012 | Div:     nan |
| Gen: 00452 | Mean:   600.0 | Min:   600.0 | Max:   600.0 | Temp:   0.012 | Div:     nan |
| Gen: 00453 | Mean:   600.0 | Min:   600.0 | Max:   600.0 | Temp:   0.012 | Div:     nan |
| Gen: 00454 | Mean:   600.0 | Min:   600.0 | Max:   600.0 | Temp:   0.011 | Div:     nan |
| Gen: 00455 | Mean:   600.0 | Min:   600.0 | Max:   600.0 | Temp:   0.011 | Div:     nan |
| Gen: 00456 | Mean:   600.0 | Min:   600.0 | Max:   600.0 | Temp:   0.011 | Div:     nan |
| Gen: 00457 | Mean:   600.0 | Min:   600.0 | Max:   600.0 | Temp:   0.011 | Div:     nan |
| Gen: 00458 | Mean:   600.0 | Min:   600.0 | Max:   600.0 | Temp:   0.011 | Div:     nan |
| Gen: 00459 | Mean:   600.0 | Min:   600.0 | Max:   600.0 | Temp:   0.010 | Div:     nan |
| Gen: 00460 | Mean:   600.0 | Min:   600.0 | Max:   600.0 | Temp:   0.010 | Div:     nan |
| Gen: 00461 | Mean:   600.0 | Min:   600.0 | Max:   600.0 | Temp:   0.010 | Div:     nan |
| Gen: 00462 | Mean:   600.0 | Min:   600.0 | Max:   600.0 | Temp:   0.010 | Div:     nan |
| Gen: 00463 | Mean:   600.0 | Min:   600.0 | Max:   600.0 | Temp:   0.010 | Div:     nan |
| Gen: 00464 | Mean:   600.0 | Min:   600.0 | Max:   600.0 | Temp:   0.009 | Div:     nan |
| Gen: 00465 | Mean:   600.0 | Min:   600.0 | Max:   600.0 | Temp:   0.009 | Div:     nan |
| Gen: 00466 | Mean:   600.0 | Min:   600.0 | Max:   600.0 | Temp:   0.009 | Div:     nan |
| Gen: 00467 | Mean:   600.0 | Min:   600.0 | Max:   600.0 | Temp:   0.009 | Div:     nan |
| Gen: 00468 | Mean:   600.0 | Min:   600.0 | Max:   600.0 | Temp:   0.009 | Div:     nan |
| Gen: 00469 | Mean:   600.0 | Min:   600.0 | Max:   600.0 | Temp:   0.008 | Div:     nan |
| Gen: 00470 | Mean:   600.0 | Min:   600.0 | Max:   600.0 | Temp:   0.008 | Div:     nan |
| Gen: 00471 | Mean:   600.0 | Min:   600.0 | Max:   600.0 | Temp:   0.008 | Div:     nan |
| Gen: 00472 | Mean:   600.0 | Min:   600.0 | Max:   600.0 | Temp:   0.008 | Div:     nan |
| Gen: 00473 | Mean:   600.0 | Min:   600.0 | Max:   600.0 | Temp:   0.008 | Div:     nan |
| Gen: 00474 | Mean:   600.0 | Min:   600.0 | Max:   600.0 | Temp:   0.008 | Div:     nan |
| Gen: 00475 | Mean:   600.0 | Min:   600.0 | Max:   600.0 | Temp:   0.007 | Div:     nan |
| Gen: 00476 | Mean:   600.0 | Min:   600.0 | Max:   600.0 | Temp:   0.007 | Div:     nan |
| Gen: 00477 | Mean:   600.0 | Min:   600.0 | Max:   600.0 | Temp:   0.007 | Div:     nan |
| Gen: 00478 | Mean:   600.0 | Min:   600.0 | Max:   600.0 | Temp:   0.007 | Div:     nan |
| Gen: 00479 | Mean:   600.0 | Min:   600.0 | Max:   600.0 | Temp:   0.007 | Div:     nan |
| Gen: 00480 | Mean:   600.0 | Min:   600.0 | Max:   600.0 | Temp:   0.007 | Div:     nan |
| Gen: 00481 | Mean:   600.0 | Min:   600.0 | Max:   600.0 | Temp:   0.007 | Div:     nan |
| Gen: 00482 | Mean:   600.0 | Min:   600.0 | Max:   600.0 | Temp:   0.007 | Div:     nan |
| Gen: 00483 | Mean:   600.0 | Min:   600.0 | Max:   600.0 | Temp:   0.006 | Div:     nan |
| Gen: 00484 | Mean:   600.0 | Min:   600.0 | Max:   600.0 | Temp:   0.006 | Div:     nan |
| Gen: 00485 | Mean:   600.0 | Min:   600.0 | Max:   600.0 | Temp:   0.006 | Div:     nan |
| Gen: 00486 | Mean:   600.0 | Min:   600.0 | Max:   600.0 | Temp:   0.006 | Div:     nan |
| Gen: 00487 | Mean:   600.0 | Min:   600.0 | Max:   600.0 | Temp:   0.006 | Div:     nan |
| Gen: 00488 | Mean:   600.0 | Min:   600.0 | Max:   600.0 | Temp:   0.006 | Div:     nan |
| Gen: 00489 | Mean:   600.0 | Min:   600.0 | Max:   600.0 | Temp:   0.006 | Div:     nan |
| Gen: 00490 | Mean:   600.0 | Min:   600.0 | Max:   600.0 | Temp:   0.006 | Div:     nan |
| Gen: 00491 | Mean:   600.0 | Min:   600.0 | Max:   600.0 | Temp:   0.005 | Div:     nan |
| Gen: 00492 | Mean:   600.0 | Min:   600.0 | Max:   600.0 | Temp:   0.005 | Div:     nan |
| Gen: 00493 | Mean:   600.0 | Min:   600.0 | Max:   600.0 | Temp:   0.005 | Div:     nan |
| Gen: 00494 | Mean:   600.0 | Min:   600.0 | Max:   600.0 | Temp:   0.005 | Div:     nan |
| Gen: 00495 | Mean:   600.0 | Min:   600.0 | Max:   600.0 | Temp:   0.005 | Div:     nan |
| Gen: 00496 | Mean:   600.0 | Min:   600.0 | Max:   600.0 | Temp:   0.005 | Div:     nan |
| Gen: 00497 | Mean:   600.0 | Min:   600.0 | Max:   600.0 | Temp:   0.005 | Div:     nan |
| Gen: 00498 | Mean:   600.0 | Min:   600.0 | Max:   600.0 | Temp:   0.005 | Div:     nan |
| Gen: 00499 | Mean:   600.0 | Min:   600.0 | Max:   600.0 | Temp:   0.005 | Div:     nan |
