========================================================================================================================
INPUTS:
========================================================================================================================

 Settings = [

    game                  = 'bipedal_walker',
    verbose               = True,
    log                   = True,
    log_frequency         = 1,
    plot_single           = False,
    compare_all_plot      = True,
    incremental_saving    = True,
    save_as_pytorch       = False,
    anti_stagnation       = False,
    use_temp              = True,
    load_weights_path     = '',
    visualize_best_at_end = True,
    output_folder         = '../../Results/2024-07-03/bipedal_walker_12-51-24',
    output_file           = '../../Results/2024-07-03/bipedal_walker_12-51-24/run_1'

 ]

 Functions = [

    run        = 'run',
    generation = 'generation_partitioned',
    selection  = 'ranking_selection',
    crossover  = 'crossover_rand',
    mutation   = 'mutation_rand_all'

 ]

 Parameters = [

    population_size = 16,
    n_episodes      = 300,
    max_generation  = 300,
    mutation_rate   = 10,
    crossover_rate  = 0.5,
    start_temp      = 60,
    decay_temp      = 0.002

 ]

========================================================================================================================
OUTPUTS:
========================================================================================================================

| Gen: 00000 | Mean:   -18.8 | Min:   -19.1 | Max:   -18.7 | Temp:  60.000 |
| Gen: 00001 | Mean:   -19.1 | Min:   -19.7 | Max:   -18.8 | Temp:  59.880 |
| Gen: 00002 | Mean:   -19.1 | Min:   -19.7 | Max:   -18.8 | Temp:  59.760 |
| Gen: 00003 | Mean:   -19.1 | Min:   -19.3 | Max:   -18.7 | Temp:  59.641 |
| Gen: 00004 | Mean:   -19.1 | Min:   -19.7 | Max:   -18.7 | Temp:  59.522 |
| Gen: 00005 | Mean:   -20.1 | Min:   -27.1 | Max:   -18.7 | Temp:  59.403 |
| Gen: 00006 | Mean:   -18.9 | Min:   -19.1 | Max:   -18.7 | Temp:  59.284 |
| Gen: 00007 | Mean:   -21.1 | Min:   -26.8 | Max:   -19.1 | Temp:  59.166 |
| Gen: 00008 | Mean:   -19.1 | Min:   -19.3 | Max:   -18.7 | Temp:  59.048 |
| Gen: 00009 | Mean:   -19.2 | Min:   -19.7 | Max:   -18.7 | Temp:  58.930 |
| Gen: 00010 | Mean:   -21.0 | Min:   -26.7 | Max:   -19.1 | Temp:  58.812 |
| Gen: 00011 | Mean:   -19.0 | Min:   -19.2 | Max:   -18.7 | Temp:  58.694 |
| Gen: 00012 | Mean:   -21.0 | Min:   -26.7 | Max:   -18.7 | Temp:  58.577 |
| Gen: 00013 | Mean:   -19.0 | Min:   -19.3 | Max:   -18.7 | Temp:  58.460 |
| Gen: 00014 | Mean:   -19.1 | Min:   -19.3 | Max:   -18.7 | Temp:  58.343 |
| Gen: 00015 | Mean:   -22.1 | Min:   -26.7 | Max:   -19.2 | Temp:  58.227 |
| Gen: 00016 | Mean:   -19.0 | Min:   -19.2 | Max:   -18.7 | Temp:  58.110 |
| Gen: 00017 | Mean:   -21.1 | Min:   -26.7 | Max:   -18.7 | Temp:  57.994 |
| Gen: 00018 | Mean:   -20.9 | Min:   -26.7 | Max:   -18.7 | Temp:  57.878 |
| Gen: 00019 | Mean:   -18.9 | Min:   -19.3 | Max:   -18.7 | Temp:  57.763 |
| Gen: 00020 | Mean:   -23.1 | Min:   -27.1 | Max:   -19.1 | Temp:  57.647 |
| Gen: 00021 | Mean:   -19.1 | Min:   -19.7 | Max:   -18.8 | Temp:  57.532 |
| Gen: 00022 | Mean:   -21.0 | Min:   -27.1 | Max:   -18.7 | Temp:  57.417 |
| Gen: 00023 | Mean:   -21.0 | Min:   -26.9 | Max:   -18.7 | Temp:  57.303 |
| Gen: 00024 | Mean:   -19.2 | Min:   -19.7 | Max:   -18.7 | Temp:  57.188 |
| Gen: 00025 | Mean:   -23.9 | Min:   -26.8 | Max:   -19.1 | Temp:  57.074 |
| Gen: 00026 | Mean:   -19.1 | Min:   -19.7 | Max:   -18.7 | Temp:  56.960 |
| Gen: 00027 | Mean:   -20.9 | Min:   -27.1 | Max:   -18.7 | Temp:  56.846 |
| Gen: 00028 | Mean:   -23.0 | Min:   -26.7 | Max:   -19.1 | Temp:  56.732 |
| Gen: 00029 | Mean:   -19.0 | Min:   -19.3 | Max:   -18.7 | Temp:  56.619 |
| Gen: 00030 | Mean:   -24.8 | Min:   -27.1 | Max:   -19.1 | Temp:  56.506 |
| Gen: 00031 | Mean:   -19.1 | Min:   -19.2 | Max:   -18.7 | Temp:  56.393 |
| Gen: 00032 | Mean:   -20.9 | Min:   -26.7 | Max:   -18.7 | Temp:  56.280 |
| Gen: 00033 | Mean:   -22.9 | Min:   -26.7 | Max:   -19.1 | Temp:  56.168 |
| Gen: 00034 | Mean:   -19.1 | Min:   -19.7 | Max:   -18.7 | Temp:  56.056 |
| Gen: 00035 | Mean:   -24.7 | Min:   -26.8 | Max:   -18.7 | Temp:  55.944 |
| Gen: 00036 | Mean:   -20.1 | Min:   -26.6 | Max:   -18.7 | Temp:  55.832 |
| Gen: 00037 | Mean:   -21.0 | Min:   -27.1 | Max:   -18.7 | Temp:  55.720 |
| Gen: 00038 | Mean:   -24.9 | Min:   -27.1 | Max:   -19.2 | Temp:  55.609 |
| Gen: 00039 | Mean:   -18.9 | Min:   -19.3 | Max:   -18.7 | Temp:  55.498 |
| Gen: 00040 | Mean:   -24.8 | Min:   -26.7 | Max:   -19.1 | Temp:  55.387 |
| Gen: 00041 | Mean:   -20.9 | Min:   -27.0 | Max:   -18.8 | Temp:  55.276 |
| Gen: 00042 | Mean:   -21.2 | Min:   -27.1 | Max:   -18.8 | Temp:  55.166 |
| Gen: 00043 | Mean:   -24.9 | Min:   -27.1 | Max:   -19.2 | Temp:  55.056 |
| Gen: 00044 | Mean:   -19.0 | Min:   -19.2 | Max:   -18.7 | Temp:  54.946 |
| Gen: 00045 | Mean:   -24.7 | Min:   -27.1 | Max:   -18.7 | Temp:  54.836 |
| Gen: 00046 | Mean:   -22.0 | Min:   -26.7 | Max:   -19.1 | Temp:  54.726 |
| Gen: 00047 | Mean:   -21.0 | Min:   -26.9 | Max:   -18.7 | Temp:  54.617 |
| Gen: 00048 | Mean:   -26.9 | Min:   -27.1 | Max:   -26.5 | Temp:  54.508 |
| Gen: 00049 | Mean:   -19.2 | Min:   -19.7 | Max:   -18.7 | Temp:  54.399 |
| Gen: 00050 | Mean:   -24.9 | Min:   -26.8 | Max:   -19.1 | Temp:  54.290 |
| Gen: 00051 | Mean:   -22.9 | Min:   -26.7 | Max:   -18.7 | Temp:  54.182 |
| Gen: 00052 | Mean:   -20.9 | Min:   -27.1 | Max:   -18.7 | Temp:  54.074 |
| Gen: 00053 | Mean:   -26.9 | Min:   -27.1 | Max:   -26.6 | Temp:  53.965 |
| Gen: 00054 | Mean:   -19.0 | Min:   -19.3 | Max:   -18.7 | Temp:  53.858 |
| Gen: 00055 | Mean:   -24.9 | Min:   -27.0 | Max:   -19.1 | Temp:  53.750 |
| Gen: 00056 | Mean:   -23.8 | Min:   -27.0 | Max:   -18.7 | Temp:  53.643 |
| Gen: 00057 | Mean:   -21.0 | Min:   -26.8 | Max:   -18.7 | Temp:  53.535 |
| Gen: 00058 | Mean:   -26.8 | Min:   -27.1 | Max:   -26.6 | Temp:  53.429 |
| Gen: 00059 | Mean:   -21.1 | Min:   -27.0 | Max:   -19.1 | Temp:  53.322 |
| Gen: 00060 | Mean:   -24.8 | Min:   -27.1 | Max:   -18.7 | Temp:  53.215 |
| Gen: 00061 | Mean:   -24.8 | Min:   -26.8 | Max:   -19.2 | Temp:  53.109 |
| Gen: 00062 | Mean:   -21.1 | Min:   -27.0 | Max:   -18.7 | Temp:  53.003 |
| Gen: 00063 | Mean:   -26.8 | Min:   -27.1 | Max:   -26.6 | Temp:  52.897 |
| Gen: 00064 | Mean:   -21.0 | Min:   -27.1 | Max:   -18.7 | Temp:  52.791 |
| Gen: 00065 | Mean:   -24.7 | Min:   -26.7 | Max:   -18.7 | Temp:  52.686 |
| Gen: 00066 | Mean:   -25.8 | Min:   -27.1 | Max:   -19.2 | Temp:  52.580 |
| Gen: 00067 | Mean:   -20.9 | Min:   -26.7 | Max:   -18.7 | Temp:  52.475 |
| Gen: 00068 | Mean:   -26.8 | Min:   -27.1 | Max:   -26.6 | Temp:  52.371 |
| Gen: 00069 | Mean:   -22.9 | Min:   -26.8 | Max:   -18.7 | Temp:  52.266 |
| Gen: 00070 | Mean:   -24.8 | Min:   -27.1 | Max:   -18.7 | Temp:  52.161 |
| Gen: 00071 | Mean:   -26.7 | Min:   -27.1 | Max:   -26.6 | Temp:  52.057 |
| Gen: 00072 | Mean:   -20.9 | Min:   -26.7 | Max:   -18.7 | Temp:  51.953 |
| Gen: 00073 | Mean:   -26.7 | Min:   -27.0 | Max:   -26.6 | Temp:  51.849 |
| Gen: 00074 | Mean:   -23.1 | Min:   -27.1 | Max:   -19.1 | Temp:  51.746 |
| Gen: 00075 | Mean:   -24.8 | Min:   -26.9 | Max:   -19.3 | Temp:  51.642 |
| Gen: 00076 | Mean:   -26.7 | Min:   -26.8 | Max:   -26.5 | Temp:  51.539 |
| Gen: 00077 | Mean:   -22.0 | Min:   -27.1 | Max:   -18.7 | Temp:  51.436 |
| Gen: 00078 | Mean:   -26.8 | Min:   -27.0 | Max:   -26.6 | Temp:  51.334 |
| Gen: 00079 | Mean:   -24.8 | Min:   -26.8 | Max:   -19.1 | Temp:  51.231 |
| Gen: 00080 | Mean:   -25.0 | Min:   -27.1 | Max:   -19.2 | Temp:  51.129 |
| Gen: 00081 | Mean:   -26.7 | Min:   -27.0 | Max:   -26.6 | Temp:  51.026 |
| Gen: 00082 | Mean:   -23.1 | Min:   -27.1 | Max:   -19.2 | Temp:  50.925 |
| Gen: 00083 | Mean:   -26.7 | Min:   -26.7 | Max:   -26.6 | Temp:  50.823 |
| Gen: 00084 | Mean:   -24.7 | Min:   -26.8 | Max:   -18.7 | Temp:  50.721 |
| Gen: 00085 | Mean:   -24.8 | Min:   -27.1 | Max:   -18.7 | Temp:  50.620 |
| Gen: 00086 | Mean:   -26.7 | Min:   -26.8 | Max:   -26.6 | Temp:  50.519 |
| Gen: 00087 | Mean:   -23.9 | Min:   -26.9 | Max:   -19.1 | Temp:  50.418 |
| Gen: 00088 | Mean:   -26.8 | Min:   -27.1 | Max:   -26.5 | Temp:  50.317 |
| Gen: 00089 | Mean:   -26.9 | Min:   -27.1 | Max:   -26.6 | Temp:  50.217 |
| Gen: 00090 | Mean:   -24.7 | Min:   -27.1 | Max:   -18.7 | Temp:  50.116 |
| Gen: 00091 | Mean:   -26.7 | Min:   -27.0 | Max:   -26.5 | Temp:  50.016 |
| Gen: 00092 | Mean:   -24.8 | Min:   -27.0 | Max:   -18.8 | Temp:  49.916 |
| Gen: 00093 | Mean:   -26.9 | Min:   -27.1 | Max:   -26.7 | Temp:  49.816 |
| Gen: 00094 | Mean:   -26.7 | Min:   -27.0 | Max:   -26.6 | Temp:  49.717 |
| Gen: 00095 | Mean:   -24.7 | Min:   -26.7 | Max:   -18.7 | Temp:  49.618 |
| Gen: 00096 | Mean:   -26.7 | Min:   -26.7 | Max:   -26.6 | Temp:  49.518 |
| Gen: 00097 | Mean:   -25.8 | Min:   -27.1 | Max:   -19.2 | Temp:  49.419 |
| Gen: 00098 | Mean:   -26.9 | Min:   -27.1 | Max:   -26.6 | Temp:  49.321 |
| Gen: 00099 | Mean:   -26.7 | Min:   -26.9 | Max:   -26.6 | Temp:  49.222 |
| Gen: 00100 | Mean:   -21.0 | Min:   -26.8 | Max:   -18.7 | Temp:  49.124 |
| Gen: 00101 | Mean:   -19.2 | Min:   -19.3 | Max:   -19.1 | Temp:  49.026 |
| Gen: 00102 | Mean:   -19.0 | Min:   -19.2 | Max:   -18.7 | Temp:  48.928 |
| Gen: 00103 | Mean:   -18.8 | Min:   -19.1 | Max:   -18.7 | Temp:  48.830 |
| Gen: 00104 | Mean:   -19.1 | Min:   -19.7 | Max:   -18.7 | Temp:  48.732 |
| Gen: 00105 | Mean:   -19.1 | Min:   -19.7 | Max:   -18.7 | Temp:  48.635 |
| Gen: 00106 | Mean:   -19.0 | Min:   -19.2 | Max:   -18.7 | Temp:  48.538 |
| Gen: 00107 | Mean:   -20.1 | Min:   -26.7 | Max:   -18.7 | Temp:  48.441 |
| Gen: 00108 | Mean:   -19.0 | Min:   -19.7 | Max:   -18.7 | Temp:  48.344 |
| Gen: 00109 | Mean:   -19.0 | Min:   -19.2 | Max:   -18.7 | Temp:  48.248 |
| Gen: 00110 | Mean:   -20.8 | Min:   -26.6 | Max:   -18.7 | Temp:  48.151 |
| Gen: 00111 | Mean:   -19.1 | Min:   -19.3 | Max:   -18.7 | Temp:  48.055 |
| Gen: 00112 | Mean:   -21.2 | Min:   -27.0 | Max:   -19.1 | Temp:  47.959 |
| Gen: 00113 | Mean:   -19.0 | Min:   -19.7 | Max:   -18.7 | Temp:  47.863 |
| Gen: 00114 | Mean:   -19.1 | Min:   -19.7 | Max:   -18.7 | Temp:  47.767 |
| Gen: 00115 | Mean:   -21.1 | Min:   -26.7 | Max:   -19.0 | Temp:  47.672 |
| Gen: 00116 | Mean:   -19.0 | Min:   -19.2 | Max:   -18.7 | Temp:  47.577 |
| Gen: 00117 | Mean:   -21.1 | Min:   -26.7 | Max:   -19.1 | Temp:  47.482 |
| Gen: 00118 | Mean:   -20.0 | Min:   -26.9 | Max:   -18.7 | Temp:  47.387 |
| Gen: 00119 | Mean:   -19.1 | Min:   -19.7 | Max:   -18.7 | Temp:  47.292 |
| Gen: 00120 | Mean:   -22.9 | Min:   -27.0 | Max:   -18.7 | Temp:  47.198 |
| Gen: 00121 | Mean:   -19.0 | Min:   -19.2 | Max:   -18.7 | Temp:  47.103 |
| Gen: 00122 | Mean:   -21.0 | Min:   -26.7 | Max:   -18.7 | Temp:  47.009 |
| Gen: 00123 | Mean:   -20.9 | Min:   -26.5 | Max:   -18.7 | Temp:  46.915 |
| Gen: 00124 | Mean:   -19.1 | Min:   -19.2 | Max:   -18.8 | Temp:  46.822 |
| Gen: 00125 | Mean:   -22.9 | Min:   -27.1 | Max:   -18.7 | Temp:  46.728 |
| Gen: 00126 | Mean:   -19.1 | Min:   -19.3 | Max:   -18.7 | Temp:  46.635 |
| Gen: 00127 | Mean:   -21.0 | Min:   -27.1 | Max:   -18.7 | Temp:  46.542 |
| Gen: 00128 | Mean:   -21.9 | Min:   -26.8 | Max:   -18.7 | Temp:  46.449 |
| Gen: 00129 | Mean:   -19.2 | Min:   -19.7 | Max:   -18.7 | Temp:  46.356 |
| Gen: 00130 | Mean:   -25.0 | Min:   -27.1 | Max:   -18.7 | Temp:  46.263 |
| Gen: 00131 | Mean:   -18.9 | Min:   -19.3 | Max:   -18.7 | Temp:  46.171 |
| Gen: 00132 | Mean:   -21.0 | Min:   -26.8 | Max:   -18.7 | Temp:  46.078 |
| Gen: 00133 | Mean:   -22.8 | Min:   -26.7 | Max:   -18.8 | Temp:  45.986 |
| Gen: 00134 | Mean:   -19.1 | Min:   -19.7 | Max:   -18.7 | Temp:  45.894 |
| Gen: 00135 | Mean:   -24.9 | Min:   -27.1 | Max:   -19.2 | Temp:  45.803 |
| Gen: 00136 | Mean:   -19.1 | Min:   -19.3 | Max:   -18.7 | Temp:  45.711 |
| Gen: 00137 | Mean:   -21.0 | Min:   -26.9 | Max:   -18.7 | Temp:  45.620 |
| Gen: 00138 | Mean:   -23.7 | Min:   -26.8 | Max:   -18.7 | Temp:  45.529 |
| Gen: 00139 | Mean:   -19.1 | Min:   -19.7 | Max:   -18.7 | Temp:  45.438 |
| Gen: 00140 | Mean:   -24.8 | Min:   -27.0 | Max:   -18.8 | Temp:  45.347 |
| Gen: 00141 | Mean:   -21.1 | Min:   -26.8 | Max:   -19.1 | Temp:  45.256 |
| Gen: 00142 | Mean:   -20.9 | Min:   -26.6 | Max:   -18.7 | Temp:  45.166 |
| Gen: 00143 | Mean:   -24.7 | Min:   -26.7 | Max:   -18.7 | Temp:  45.076 |
| Gen: 00144 | Mean:   -19.0 | Min:   -19.2 | Max:   -18.7 | Temp:  44.986 |
| Gen: 00145 | Mean:   -24.9 | Min:   -27.1 | Max:   -19.2 | Temp:  44.896 |
| Gen: 00146 | Mean:   -21.0 | Min:   -26.8 | Max:   -18.7 | Temp:  44.806 |
| Gen: 00147 | Mean:   -21.1 | Min:   -26.7 | Max:   -18.7 | Temp:  44.717 |
| Gen: 00148 | Mean:   -25.8 | Min:   -27.1 | Max:   -19.1 | Temp:  44.627 |
| Gen: 00149 | Mean:   -19.1 | Min:   -19.7 | Max:   -18.7 | Temp:  44.538 |
| Gen: 00150 | Mean:   -24.7 | Min:   -27.1 | Max:   -18.7 | Temp:  44.449 |
| Gen: 00151 | Mean:   -22.7 | Min:   -26.7 | Max:   -18.7 | Temp:  44.360 |
| Gen: 00152 | Mean:   -21.0 | Min:   -26.7 | Max:   -18.7 | Temp:  44.272 |
| Gen: 00153 | Mean:   -26.8 | Min:   -26.9 | Max:   -26.5 | Temp:  44.183 |
| Gen: 00154 | Mean:   -18.9 | Min:   -19.2 | Max:   -18.7 | Temp:  44.095 |
| Gen: 00155 | Mean:   -24.7 | Min:   -27.1 | Max:   -18.7 | Temp:  44.007 |
| Gen: 00156 | Mean:   -22.9 | Min:   -26.9 | Max:   -18.7 | Temp:  43.919 |
| Gen: 00157 | Mean:   -31.4 | Min:  -102.5 | Max:   -18.7 | Temp:  43.831 |
| Gen: 00158 | Mean:   -31.5 | Min:   -64.8 | Max:   -26.7 | Temp:  43.744 |
| Gen: 00159 | Mean:   -24.2 | Min:   -53.3 | Max:   -18.7 | Temp:  43.656 |
| Gen: 00160 | Mean:   -28.2 | Min:   -53.4 | Max:   -18.7 | Temp:  43.569 |
| Gen: 00161 | Mean:   -29.1 | Min:   -53.3 | Max:   -19.1 | Temp:  43.482 |
| Gen: 00162 | Mean:   -24.1 | Min:   -52.9 | Max:   -18.7 | Temp:  43.395 |
| Gen: 00163 | Mean:   -30.0 | Min:   -52.9 | Max:   -26.6 | Temp:  43.308 |
| Gen: 00164 | Mean:   -25.3 | Min:   -53.4 | Max:   -18.7 | Temp:  43.222 |
| Gen: 00165 | Mean:   -26.1 | Min:   -35.5 | Max:   -19.2 | Temp:  43.135 |
| Gen: 00166 | Mean:   -34.8 | Min:   -99.4 | Max:   -18.7 | Temp:  43.049 |
| Gen: 00167 | Mean:   -25.6 | Min:   -63.9 | Max:   -18.7 | Temp:  42.963 |
| Gen: 00168 | Mean:   -30.0 | Min:   -53.4 | Max:   -26.5 | Temp:  42.877 |
| Gen: 00169 | Mean:   -24.2 | Min:   -37.8 | Max:   -18.7 | Temp:  42.792 |
| Gen: 00170 | Mean:   -26.2 | Min:   -37.1 | Max:   -18.8 | Temp:  42.706 |
| Gen: 00171 | Mean:   -28.1 | Min:   -37.0 | Max:   -26.6 | Temp:  42.621 |
| Gen: 00172 | Mean:   -21.6 | Min:   -32.2 | Max:   -18.7 | Temp:  42.536 |
| Gen: 00173 | Mean:   -31.4 | Min:   -64.8 | Max:   -26.6 | Temp:  42.451 |
| Gen: 00174 | Mean:   -25.8 | Min:   -42.2 | Max:   -18.8 | Temp:  42.366 |
| Gen: 00175 | Mean:   -28.6 | Min:   -57.2 | Max:   -19.1 | Temp:  42.281 |
| Gen: 00176 | Mean:   -30.6 | Min:   -57.1 | Max:   -26.7 | Temp:  42.197 |
| Gen: 00177 | Mean:   -24.5 | Min:   -54.4 | Max:   -18.7 | Temp:  42.112 |
| Gen: 00178 | Mean:   -30.1 | Min:   -53.3 | Max:   -26.6 | Temp:  42.028 |
| Gen: 00179 | Mean:   -28.3 | Min:   -54.5 | Max:   -18.7 | Temp:  41.944 |
| Gen: 00180 | Mean:   -27.9 | Min:   -50.7 | Max:   -18.7 | Temp:  41.861 |
| Gen: 00181 | Mean:   -29.9 | Min:   -52.1 | Max:   -26.7 | Temp:  41.777 |
| Gen: 00182 | Mean:   -26.2 | Min:   -52.1 | Max:   -19.1 | Temp:  41.693 |
| Gen: 00183 | Mean:   -29.8 | Min:   -51.1 | Max:   -26.6 | Temp:  41.610 |
| Gen: 00184 | Mean:   -29.2 | Min:   -54.0 | Max:   -19.2 | Temp:  41.527 |
| Gen: 00185 | Mean:   -28.3 | Min:   -54.0 | Max:   -19.0 | Temp:  41.444 |
| Gen: 00186 | Mean:   -29.7 | Min:   -50.1 | Max:   -26.7 | Temp:  41.361 |
| Gen: 00187 | Mean:   -27.0 | Min:   -59.1 | Max:   -18.7 | Temp:  41.279 |
| Gen: 00188 | Mean:   -27.5 | Min:   -32.5 | Max:   -26.6 | Temp:  41.196 |
| Gen: 00189 | Mean:   -36.5 | Min:  -104.8 | Max:   -26.6 | Temp:  41.114 |
| Gen: 00190 | Mean:   -34.3 | Min:  -102.3 | Max:   -18.8 | Temp:  41.032 |
| Gen: 00191 | Mean:   -31.6 | Min:   -64.9 | Max:   -26.6 | Temp:  40.950 |
| Gen: 00192 | Mean:   -27.1 | Min:   -45.1 | Max:   -19.2 | Temp:  40.868 |
| Gen: 00193 | Mean:   -29.4 | Min:   -47.4 | Max:   -26.7 | Temp:  40.786 |
| Gen: 00194 | Mean:   -29.1 | Min:   -46.5 | Max:   -26.5 | Temp:  40.705 |
| Gen: 00195 | Mean:   -24.5 | Min:   -27.1 | Max:   -18.7 | Temp:  40.623 |
| Gen: 00196 | Mean:   -31.2 | Min:   -61.7 | Max:   -26.7 | Temp:  40.542 |
| Gen: 00197 | Mean:   -28.9 | Min:   -59.7 | Max:   -18.7 | Temp:  40.461 |
| Gen: 00198 | Mean:   -29.7 | Min:   -50.0 | Max:   -26.6 | Temp:  40.380 |
| Gen: 00199 | Mean:   -29.5 | Min:   -50.0 | Max:   -26.5 | Temp:  40.300 |
| Gen: 00200 | Mean:   -28.2 | Min:   -45.7 | Max:   -19.2 | Temp:  40.219 |
| Gen: 00201 | Mean:   -28.9 | Min:   -43.8 | Max:   -26.7 | Temp:  40.139 |
| Gen: 00202 | Mean:   -27.7 | Min:   -42.0 | Max:   -19.3 | Temp:  40.059 |
| Gen: 00203 | Mean:   -22.1 | Min:   -42.8 | Max:   -18.7 | Temp:  39.979 |
| Gen: 00204 | Mean:   -21.9 | Min:   -42.4 | Max:   -18.7 | Temp:  39.899 |
| Gen: 00205 | Mean:   -22.0 | Min:   -43.0 | Max:   -18.7 | Temp:  39.819 |
| Gen: 00206 | Mean:   -22.0 | Min:   -42.0 | Max:   -18.7 | Temp:  39.739 |
| Gen: 00207 | Mean:   -21.8 | Min:   -42.1 | Max:   -18.7 | Temp:  39.660 |
| Gen: 00208 | Mean:   -22.0 | Min:   -42.3 | Max:   -18.7 | Temp:  39.581 |
| Gen: 00209 | Mean:   -21.5 | Min:   -39.0 | Max:   -18.7 | Temp:  39.502 |
| Gen: 00210 | Mean:   -23.9 | Min:   -50.8 | Max:   -18.7 | Temp:  39.423 |
| Gen: 00211 | Mean:   -21.5 | Min:   -40.1 | Max:   -18.7 | Temp:  39.344 |
| Gen: 00212 | Mean:   -23.6 | Min:   -48.1 | Max:   -18.7 | Temp:  39.265 |
| Gen: 00213 | Mean:   -21.7 | Min:   -40.1 | Max:   -18.7 | Temp:  39.187 |
| Gen: 00214 | Mean:   -21.6 | Min:   -40.1 | Max:   -18.7 | Temp:  39.109 |
| Gen: 00215 | Mean:   -23.7 | Min:   -40.1 | Max:   -18.7 | Temp:  39.031 |
| Gen: 00216 | Mean:   -21.4 | Min:   -38.4 | Max:   -18.7 | Temp:  38.953 |
| Gen: 00217 | Mean:   -23.8 | Min:   -49.5 | Max:   -18.7 | Temp:  38.875 |
| Gen: 00218 | Mean:   -20.6 | Min:   -31.5 | Max:   -18.7 | Temp:  38.797 |
| Gen: 00219 | Mean:   -20.7 | Min:   -31.4 | Max:   -18.7 | Temp:  38.720 |
| Gen: 00220 | Mean:   -23.4 | Min:   -30.9 | Max:   -18.8 | Temp:  38.642 |
| Gen: 00221 | Mean:   -20.6 | Min:   -31.2 | Max:   -18.7 | Temp:  38.565 |
| Gen: 00222 | Mean:   -21.4 | Min:   -31.6 | Max:   -18.7 | Temp:  38.488 |
| Gen: 00223 | Mean:   -22.5 | Min:   -31.0 | Max:   -19.1 | Temp:  38.411 |
| Gen: 00224 | Mean:   -20.8 | Min:   -31.5 | Max:   -18.7 | Temp:  38.334 |
| Gen: 00225 | Mean:   -24.6 | Min:   -33.7 | Max:   -18.7 | Temp:  38.258 |
| Gen: 00226 | Mean:   -20.5 | Min:   -31.2 | Max:   -18.7 | Temp:  38.181 |
| Gen: 00227 | Mean:   -21.4 | Min:   -31.5 | Max:   -18.7 | Temp:  38.105 |
| Gen: 00228 | Mean:   -22.6 | Min:   -31.5 | Max:   -18.7 | Temp:  38.029 |
| Gen: 00229 | Mean:   -20.7 | Min:   -31.5 | Max:   -18.7 | Temp:  37.953 |
| Gen: 00230 | Mean:   -25.4 | Min:   -31.2 | Max:   -18.7 | Temp:  37.877 |
| Gen: 00231 | Mean:   -20.6 | Min:   -31.2 | Max:   -18.7 | Temp:  37.801 |
| Gen: 00232 | Mean:   -21.6 | Min:   -31.0 | Max:   -18.8 | Temp:  37.726 |
| Gen: 00233 | Mean:   -24.4 | Min:   -30.8 | Max:   -19.1 | Temp:  37.650 |
| Gen: 00234 | Mean:   -24.7 | Min:   -65.0 | Max:   -18.7 | Temp:  37.575 |
| Gen: 00235 | Mean:   -25.3 | Min:   -29.3 | Max:   -19.7 | Temp:  37.500 |
| Gen: 00236 | Mean:   -20.6 | Min:   -31.2 | Max:   -18.8 | Temp:  37.425 |
| Gen: 00237 | Mean:   -21.3 | Min:   -29.5 | Max:   -18.8 | Temp:  37.350 |
| Gen: 00238 | Mean:   -24.4 | Min:   -30.4 | Max:   -18.7 | Temp:  37.276 |
| Gen: 00239 | Mean:   -21.6 | Min:   -40.6 | Max:   -18.7 | Temp:  37.201 |
| Gen: 00240 | Mean:   -25.3 | Min:   -30.6 | Max:   -18.7 | Temp:  37.127 |
| Gen: 00241 | Mean:   -21.6 | Min:   -31.2 | Max:   -18.7 | Temp:  37.053 |
| Gen: 00242 | Mean:   -21.6 | Min:   -31.3 | Max:   -18.7 | Temp:  36.979 |
| Gen: 00243 | Mean:   -26.5 | Min:   -33.3 | Max:   -18.7 | Temp:  36.905 |
| Gen: 00244 | Mean:   -19.7 | Min:   -23.0 | Max:   -18.7 | Temp:  36.831 |
| Gen: 00245 | Mean:   -25.4 | Min:   -31.4 | Max:   -19.1 | Temp:  36.758 |
| Gen: 00246 | Mean:   -27.1 | Min:   -67.3 | Max:   -19.1 | Temp:  36.684 |
| Gen: 00247 | Mean:   -26.4 | Min:   -72.0 | Max:   -18.7 | Temp:  36.611 |
| Gen: 00248 | Mean:   -30.4 | Min:   -63.4 | Max:   -19.1 | Temp:  36.538 |
| Gen: 00249 | Mean:   -23.1 | Min:   -51.3 | Max:   -18.7 | Temp:  36.465 |
| Gen: 00250 | Mean:   -27.9 | Min:   -51.3 | Max:   -19.1 | Temp:  36.392 |
| Gen: 00251 | Mean:   -24.9 | Min:   -42.3 | Max:   -18.7 | Temp:  36.319 |
| Gen: 00252 | Mean:   -23.2 | Min:   -42.4 | Max:   -18.8 | Temp:  36.247 |
| Gen: 00253 | Mean:   -28.6 | Min:   -41.7 | Max:   -26.6 | Temp:  36.174 |
| Gen: 00254 | Mean:   -22.0 | Min:   -42.3 | Max:   -18.7 | Temp:  36.102 |
| Gen: 00255 | Mean:   -26.9 | Min:   -43.5 | Max:   -19.1 | Temp:  36.030 |
| Gen: 00256 | Mean:   -25.7 | Min:   -41.6 | Max:   -18.8 | Temp:  35.958 |
| Gen: 00257 | Mean:   -23.1 | Min:   -43.4 | Max:   -18.7 | Temp:  35.886 |
| Gen: 00258 | Mean:   -28.7 | Min:   -41.9 | Max:   -26.6 | Temp:  35.814 |
| Gen: 00259 | Mean:   -22.1 | Min:   -42.3 | Max:   -19.1 | Temp:  35.743 |
| Gen: 00260 | Mean:   -26.7 | Min:   -41.7 | Max:   -19.1 | Temp:  35.671 |
| Gen: 00261 | Mean:   -23.3 | Min:   -26.7 | Max:   -15.1 | Temp:  35.600 |
| Gen: 00262 | Mean:   -20.9 | Min:   -26.8 | Max:   -18.7 | Temp:  35.529 |
| Gen: 00263 | Mean:   -25.4 | Min:   -26.7 | Max:   -16.2 | Temp:  35.458 |
| Gen: 00264 | Mean:   -19.6 | Min:   -26.6 | Max:   -15.8 | Temp:  35.387 |
| Gen: 00265 | Mean:   -24.5 | Min:   -27.1 | Max:   -17.2 | Temp:  35.316 |
| Gen: 00266 | Mean:   -23.4 | Min:   -27.0 | Max:   -14.9 | Temp:  35.246 |
| Gen: 00267 | Mean:   -20.5 | Min:   -26.7 | Max:   -15.5 | Temp:  35.175 |
| Gen: 00268 | Mean:   -28.7 | Min:   -41.0 | Max:   -26.6 | Temp:  35.105 |
| Gen: 00269 | Mean:   -23.4 | Min:   -37.7 | Max:   -18.7 | Temp:  35.035 |
| Gen: 00270 | Mean:   -26.7 | Min:   -41.5 | Max:   -19.2 | Temp:  34.965 |
| Gen: 00271 | Mean:   -28.6 | Min:   -41.7 | Max:   -26.6 | Temp:  34.895 |
| Gen: 00272 | Mean:   -22.7 | Min:   -41.8 | Max:   -18.7 | Temp:  34.825 |
| Gen: 00273 | Mean:   -28.7 | Min:   -41.7 | Max:   -26.5 | Temp:  34.756 |
| Gen: 00274 | Mean:   -25.8 | Min:   -41.6 | Max:   -19.1 | Temp:  34.686 |
| Gen: 00275 | Mean:   -26.1 | Min:   -37.2 | Max:   -18.7 | Temp:  34.617 |
| Gen: 00276 | Mean:   -29.6 | Min:   -49.4 | Max:   -26.6 | Temp:  34.548 |
| Gen: 00277 | Mean:   -24.0 | Min:   -50.1 | Max:   -18.8 | Temp:  34.479 |
| Gen: 00278 | Mean:   -29.5 | Min:   -48.2 | Max:   -26.6 | Temp:  34.410 |
| Gen: 00279 | Mean:   -25.3 | Min:   -38.6 | Max:   -18.7 | Temp:  34.341 |
| Gen: 00280 | Mean:   -26.9 | Min:   -42.5 | Max:   -19.3 | Temp:  34.273 |
| Gen: 00281 | Mean:   -28.6 | Min:   -41.9 | Max:   -26.6 | Temp:  34.204 |
| Gen: 00282 | Mean:   -23.4 | Min:   -38.8 | Max:   -18.7 | Temp:  34.136 |
| Gen: 00283 | Mean:   -28.3 | Min:   -38.6 | Max:   -26.6 | Temp:  34.068 |
| Gen: 00284 | Mean:   -27.3 | Min:   -39.0 | Max:   -19.1 | Temp:  33.999 |
| Gen: 00285 | Mean:   -26.4 | Min:   -38.7 | Max:   -19.1 | Temp:  33.932 |
| Gen: 00286 | Mean:   -28.5 | Min:   -41.6 | Max:   -26.5 | Temp:  33.864 |
| Gen: 00287 | Mean:   -24.5 | Min:   -39.8 | Max:   -18.7 | Temp:  33.796 |
| Gen: 00288 | Mean:   -28.2 | Min:   -38.6 | Max:   -26.6 | Temp:  33.729 |
| Gen: 00289 | Mean:   -27.2 | Min:   -37.7 | Max:   -19.2 | Temp:  33.661 |
| Gen: 00290 | Mean:   -26.0 | Min:   -37.2 | Max:   -18.7 | Temp:  33.594 |
| Gen: 00291 | Mean:   -28.4 | Min:   -40.1 | Max:   -26.5 | Temp:  33.527 |
| Gen: 00292 | Mean:   -25.5 | Min:   -40.5 | Max:   -18.7 | Temp:  33.460 |
| Gen: 00293 | Mean:   -28.1 | Min:   -37.9 | Max:   -26.6 | Temp:  33.393 |
| Gen: 00294 | Mean:   -28.2 | Min:   -38.4 | Max:   -26.6 | Temp:  33.326 |
| Gen: 00295 | Mean:   -26.2 | Min:   -37.4 | Max:   -19.1 | Temp:  33.260 |
| Gen: 00296 | Mean:   -28.0 | Min:   -37.4 | Max:   -26.6 | Temp:  33.193 |
| Gen: 00297 | Mean:   -26.6 | Min:   -41.0 | Max:   -18.7 | Temp:  33.127 |
| Gen: 00298 | Mean:   -26.7 | Min:   -27.0 | Max:   -26.4 | Temp:  33.061 |
| Gen: 00299 | Mean:   -26.4 | Min:   -27.2 | Max:   -23.5 | Temp:  32.995 |
