===========================================================================================================================================================
INPUTS:
===========================================================================================================================================================

 Settings = [

    game                  = 'cart_pole',
    verbose               = True,
    log                   = True,
    log_frequency         = 1,
    plot_single           = True,
    compare_all_plot      = True,
    incremental_saving    = True,
    save_as_pytorch       = False,
    anti_stagnation       = False,
    use_temp              = False,
    load_weights_path     = '',
    visualize_best_at_end = False,
    only_better           = False,
    scale_by_weight       = False,
    diversity             = False,
    output_folder         = '../../Results/2024-07-25/cart_pole_09-18-12',
    output_file           = '../../Results/2024-07-25/cart_pole_09-18-12/run_2'

 ]

 Functions = [

    run        = 'run',
    generation = 'generation_partitioned',
    selection  = 'ranking_selection',
    crossover  = 'crossover_rand',
    mutation   = 'mutation_rand_all'

 ]

 Parameters = [

    population_size  = 32,
    max_generation   = 500,
    mutation_rate    = 0.02,
    crossover_rate   = 0.5,
    start_temp       = 50,
    decay_temp       = 0.02,
    keep_best        = 2,
    calc_fitness_rep = 1,
    selection_pow    = 1.2

 ]

===========================================================================================================================================================
OUTPUTS:
===========================================================================================================================================================

| Gen: 00000 | Mean:    52.0 | Min:    43.0 | Max:    76.0 | Temp:  10.000 | Div:     nan |
| Gen: 00001 | Mean:    68.8 | Min:    40.0 | Max:   120.0 | Temp:  10.000 | Div:     nan |
| Gen: 00002 | Mean:    60.6 | Min:    33.0 | Max:   184.0 | Temp:  10.000 | Div:     nan |
| Gen: 00003 | Mean:    68.4 | Min:    33.0 | Max:   160.0 | Temp:  10.000 | Div:     nan |
| Gen: 00004 | Mean:    72.0 | Min:    36.0 | Max:   168.0 | Temp:  10.000 | Div:     nan |
| Gen: 00005 | Mean:    87.2 | Min:    31.0 | Max:   232.0 | Temp:  10.000 | Div:     nan |
| Gen: 00006 | Mean:   110.1 | Min:    52.0 | Max:   222.0 | Temp:  10.000 | Div:     nan |
| Gen: 00007 | Mean:   164.1 | Min:   109.0 | Max:   294.0 | Temp:  10.000 | Div:     nan |
| Gen: 00008 | Mean:   171.3 | Min:   123.0 | Max:   312.0 | Temp:  10.000 | Div:     nan |
| Gen: 00009 | Mean:   196.2 | Min:   143.0 | Max:   264.0 | Temp:  10.000 | Div:     nan |
| Gen: 00010 | Mean:   233.9 | Min:   161.0 | Max:   600.0 | Temp:  10.000 | Div:     nan |
| Gen: 00011 | Mean:   261.6 | Min:   171.0 | Max:   600.0 | Temp:  10.000 | Div:     nan |
| Gen: 00012 | Mean:   276.6 | Min:   160.0 | Max:   600.0 | Temp:  10.000 | Div:     nan |
| Gen: 00013 | Mean:   272.3 | Min:   165.0 | Max:   600.0 | Temp:  10.000 | Div:     nan |
| Gen: 00014 | Mean:   458.4 | Min:   221.0 | Max:   600.0 | Temp:  10.000 | Div:     nan |
| Gen: 00015 | Mean:   525.0 | Min:   252.0 | Max:   600.0 | Temp:  10.000 | Div:     nan |
| Gen: 00016 | Mean:   586.0 | Min:   418.0 | Max:   600.0 | Temp:  10.000 | Div:     nan |
| Gen: 00017 | Mean:   600.0 | Min:   600.0 | Max:   600.0 | Temp:  10.000 | Div:     nan |
| Gen: 00018 | Mean:   591.7 | Min:   467.0 | Max:   600.0 | Temp:  10.000 | Div:     nan |
| Gen: 00019 | Mean:   600.0 | Min:   600.0 | Max:   600.0 | Temp:  10.000 | Div:     nan |
| Gen: 00020 | Mean:   600.0 | Min:   600.0 | Max:   600.0 | Temp:  10.000 | Div:     nan |
| Gen: 00021 | Mean:   600.0 | Min:   600.0 | Max:   600.0 | Temp:  10.000 | Div:     nan |
| Gen: 00022 | Mean:   600.0 | Min:   600.0 | Max:   600.0 | Temp:  10.000 | Div:     nan |
| Gen: 00023 | Mean:   600.0 | Min:   600.0 | Max:   600.0 | Temp:  10.000 | Div:     nan |
| Gen: 00024 | Mean:   600.0 | Min:   600.0 | Max:   600.0 | Temp:  10.000 | Div:     nan |
| Gen: 00025 | Mean:   600.0 | Min:   600.0 | Max:   600.0 | Temp:  10.000 | Div:     nan |
| Gen: 00026 | Mean:   600.0 | Min:   600.0 | Max:   600.0 | Temp:  10.000 | Div:     nan |
| Gen: 00027 | Mean:   600.0 | Min:   600.0 | Max:   600.0 | Temp:  10.000 | Div:     nan |
| Gen: 00028 | Mean:   600.0 | Min:   600.0 | Max:   600.0 | Temp:  10.000 | Div:     nan |
| Gen: 00029 | Mean:   600.0 | Min:   600.0 | Max:   600.0 | Temp:  10.000 | Div:     nan |
| Gen: 00030 | Mean:   600.0 | Min:   600.0 | Max:   600.0 | Temp:  10.000 | Div:     nan |
| Gen: 00031 | Mean:   600.0 | Min:   600.0 | Max:   600.0 | Temp:  10.000 | Div:     nan |
| Gen: 00032 | Mean:   600.0 | Min:   600.0 | Max:   600.0 | Temp:  10.000 | Div:     nan |
| Gen: 00033 | Mean:   600.0 | Min:   600.0 | Max:   600.0 | Temp:  10.000 | Div:     nan |
| Gen: 00034 | Mean:   600.0 | Min:   600.0 | Max:   600.0 | Temp:  10.000 | Div:     nan |
| Gen: 00035 | Mean:   600.0 | Min:   600.0 | Max:   600.0 | Temp:  10.000 | Div:     nan |
| Gen: 00036 | Mean:   600.0 | Min:   600.0 | Max:   600.0 | Temp:  10.000 | Div:     nan |
| Gen: 00037 | Mean:   600.0 | Min:   600.0 | Max:   600.0 | Temp:  10.000 | Div:     nan |
| Gen: 00038 | Mean:   600.0 | Min:   600.0 | Max:   600.0 | Temp:  10.000 | Div:     nan |
| Gen: 00039 | Mean:   600.0 | Min:   600.0 | Max:   600.0 | Temp:  10.000 | Div:     nan |
| Gen: 00040 | Mean:   600.0 | Min:   600.0 | Max:   600.0 | Temp:  10.000 | Div:     nan |
| Gen: 00041 | Mean:   600.0 | Min:   600.0 | Max:   600.0 | Temp:  10.000 | Div:     nan |
| Gen: 00042 | Mean:   600.0 | Min:   600.0 | Max:   600.0 | Temp:  10.000 | Div:     nan |
| Gen: 00043 | Mean:   600.0 | Min:   600.0 | Max:   600.0 | Temp:  10.000 | Div:     nan |
| Gen: 00044 | Mean:   600.0 | Min:   600.0 | Max:   600.0 | Temp:  10.000 | Div:     nan |
| Gen: 00045 | Mean:   600.0 | Min:   600.0 | Max:   600.0 | Temp:  10.000 | Div:     nan |
| Gen: 00046 | Mean:   600.0 | Min:   600.0 | Max:   600.0 | Temp:  10.000 | Div:     nan |
| Gen: 00047 | Mean:   600.0 | Min:   600.0 | Max:   600.0 | Temp:  10.000 | Div:     nan |
| Gen: 00048 | Mean:   600.0 | Min:   600.0 | Max:   600.0 | Temp:  10.000 | Div:     nan |
| Gen: 00049 | Mean:   600.0 | Min:   600.0 | Max:   600.0 | Temp:  10.000 | Div:     nan |
| Gen: 00050 | Mean:   600.0 | Min:   600.0 | Max:   600.0 | Temp:  10.000 | Div:     nan |
| Gen: 00051 | Mean:   600.0 | Min:   600.0 | Max:   600.0 | Temp:  10.000 | Div:     nan |
| Gen: 00052 | Mean:   600.0 | Min:   600.0 | Max:   600.0 | Temp:  10.000 | Div:     nan |
| Gen: 00053 | Mean:   600.0 | Min:   600.0 | Max:   600.0 | Temp:  10.000 | Div:     nan |
| Gen: 00054 | Mean:   600.0 | Min:   600.0 | Max:   600.0 | Temp:  10.000 | Div:     nan |
| Gen: 00055 | Mean:   600.0 | Min:   600.0 | Max:   600.0 | Temp:  10.000 | Div:     nan |
| Gen: 00056 | Mean:   600.0 | Min:   600.0 | Max:   600.0 | Temp:  10.000 | Div:     nan |
| Gen: 00057 | Mean:   600.0 | Min:   600.0 | Max:   600.0 | Temp:  10.000 | Div:     nan |
| Gen: 00058 | Mean:   600.0 | Min:   600.0 | Max:   600.0 | Temp:  10.000 | Div:     nan |
| Gen: 00059 | Mean:   600.0 | Min:   600.0 | Max:   600.0 | Temp:  10.000 | Div:     nan |
| Gen: 00060 | Mean:   600.0 | Min:   600.0 | Max:   600.0 | Temp:  10.000 | Div:     nan |
| Gen: 00061 | Mean:   600.0 | Min:   600.0 | Max:   600.0 | Temp:  10.000 | Div:     nan |
| Gen: 00062 | Mean:   600.0 | Min:   600.0 | Max:   600.0 | Temp:  10.000 | Div:     nan |
| Gen: 00063 | Mean:   600.0 | Min:   600.0 | Max:   600.0 | Temp:  10.000 | Div:     nan |
| Gen: 00064 | Mean:   600.0 | Min:   600.0 | Max:   600.0 | Temp:  10.000 | Div:     nan |
| Gen: 00065 | Mean:   600.0 | Min:   600.0 | Max:   600.0 | Temp:  10.000 | Div:     nan |
| Gen: 00066 | Mean:   600.0 | Min:   600.0 | Max:   600.0 | Temp:  10.000 | Div:     nan |
| Gen: 00067 | Mean:   600.0 | Min:   600.0 | Max:   600.0 | Temp:  10.000 | Div:     nan |
| Gen: 00068 | Mean:   600.0 | Min:   600.0 | Max:   600.0 | Temp:  10.000 | Div:     nan |
| Gen: 00069 | Mean:   600.0 | Min:   600.0 | Max:   600.0 | Temp:  10.000 | Div:     nan |
| Gen: 00070 | Mean:   600.0 | Min:   600.0 | Max:   600.0 | Temp:  10.000 | Div:     nan |
| Gen: 00071 | Mean:   600.0 | Min:   600.0 | Max:   600.0 | Temp:  10.000 | Div:     nan |
| Gen: 00072 | Mean:   600.0 | Min:   600.0 | Max:   600.0 | Temp:  10.000 | Div:     nan |
| Gen: 00073 | Mean:   600.0 | Min:   600.0 | Max:   600.0 | Temp:  10.000 | Div:     nan |
| Gen: 00074 | Mean:   600.0 | Min:   600.0 | Max:   600.0 | Temp:  10.000 | Div:     nan |
| Gen: 00075 | Mean:   600.0 | Min:   600.0 | Max:   600.0 | Temp:  10.000 | Div:     nan |
| Gen: 00076 | Mean:   600.0 | Min:   600.0 | Max:   600.0 | Temp:  10.000 | Div:     nan |
| Gen: 00077 | Mean:   600.0 | Min:   600.0 | Max:   600.0 | Temp:  10.000 | Div:     nan |
| Gen: 00078 | Mean:   600.0 | Min:   600.0 | Max:   600.0 | Temp:  10.000 | Div:     nan |
| Gen: 00079 | Mean:   600.0 | Min:   600.0 | Max:   600.0 | Temp:  10.000 | Div:     nan |
| Gen: 00080 | Mean:   600.0 | Min:   600.0 | Max:   600.0 | Temp:  10.000 | Div:     nan |
| Gen: 00081 | Mean:   600.0 | Min:   600.0 | Max:   600.0 | Temp:  10.000 | Div:     nan |
| Gen: 00082 | Mean:   600.0 | Min:   600.0 | Max:   600.0 | Temp:  10.000 | Div:     nan |
| Gen: 00083 | Mean:   600.0 | Min:   600.0 | Max:   600.0 | Temp:  10.000 | Div:     nan |
| Gen: 00084 | Mean:   600.0 | Min:   600.0 | Max:   600.0 | Temp:  10.000 | Div:     nan |
| Gen: 00085 | Mean:   600.0 | Min:   600.0 | Max:   600.0 | Temp:  10.000 | Div:     nan |
| Gen: 00086 | Mean:   600.0 | Min:   600.0 | Max:   600.0 | Temp:  10.000 | Div:     nan |
| Gen: 00087 | Mean:   600.0 | Min:   600.0 | Max:   600.0 | Temp:  10.000 | Div:     nan |
| Gen: 00088 | Mean:   600.0 | Min:   600.0 | Max:   600.0 | Temp:  10.000 | Div:     nan |
| Gen: 00089 | Mean:   600.0 | Min:   600.0 | Max:   600.0 | Temp:  10.000 | Div:     nan |
| Gen: 00090 | Mean:   600.0 | Min:   600.0 | Max:   600.0 | Temp:  10.000 | Div:     nan |
| Gen: 00091 | Mean:   600.0 | Min:   600.0 | Max:   600.0 | Temp:  10.000 | Div:     nan |
| Gen: 00092 | Mean:   600.0 | Min:   600.0 | Max:   600.0 | Temp:  10.000 | Div:     nan |
| Gen: 00093 | Mean:   600.0 | Min:   600.0 | Max:   600.0 | Temp:  10.000 | Div:     nan |
| Gen: 00094 | Mean:   600.0 | Min:   600.0 | Max:   600.0 | Temp:  10.000 | Div:     nan |
| Gen: 00095 | Mean:   600.0 | Min:   600.0 | Max:   600.0 | Temp:  10.000 | Div:     nan |
| Gen: 00096 | Mean:   600.0 | Min:   600.0 | Max:   600.0 | Temp:  10.000 | Div:     nan |
| Gen: 00097 | Mean:   600.0 | Min:   600.0 | Max:   600.0 | Temp:  10.000 | Div:     nan |
| Gen: 00098 | Mean:   600.0 | Min:   600.0 | Max:   600.0 | Temp:  10.000 | Div:     nan |
| Gen: 00099 | Mean:   600.0 | Min:   600.0 | Max:   600.0 | Temp:  10.000 | Div:     nan |
| Gen: 00100 | Mean:   600.0 | Min:   600.0 | Max:   600.0 | Temp:  10.000 | Div:     nan |
| Gen: 00101 | Mean:   600.0 | Min:   600.0 | Max:   600.0 | Temp:  10.000 | Div:     nan |
| Gen: 00102 | Mean:   600.0 | Min:   600.0 | Max:   600.0 | Temp:  10.000 | Div:     nan |
| Gen: 00103 | Mean:   600.0 | Min:   600.0 | Max:   600.0 | Temp:  10.000 | Div:     nan |
| Gen: 00104 | Mean:   600.0 | Min:   600.0 | Max:   600.0 | Temp:  10.000 | Div:     nan |
| Gen: 00105 | Mean:   600.0 | Min:   600.0 | Max:   600.0 | Temp:  10.000 | Div:     nan |
| Gen: 00106 | Mean:   600.0 | Min:   600.0 | Max:   600.0 | Temp:  10.000 | Div:     nan |
| Gen: 00107 | Mean:   600.0 | Min:   600.0 | Max:   600.0 | Temp:  10.000 | Div:     nan |
| Gen: 00108 | Mean:   600.0 | Min:   600.0 | Max:   600.0 | Temp:  10.000 | Div:     nan |
| Gen: 00109 | Mean:   600.0 | Min:   600.0 | Max:   600.0 | Temp:  10.000 | Div:     nan |
| Gen: 00110 | Mean:   600.0 | Min:   600.0 | Max:   600.0 | Temp:  10.000 | Div:     nan |
| Gen: 00111 | Mean:   600.0 | Min:   600.0 | Max:   600.0 | Temp:  10.000 | Div:     nan |
| Gen: 00112 | Mean:   600.0 | Min:   600.0 | Max:   600.0 | Temp:  10.000 | Div:     nan |
| Gen: 00113 | Mean:   600.0 | Min:   600.0 | Max:   600.0 | Temp:  10.000 | Div:     nan |
| Gen: 00114 | Mean:   600.0 | Min:   600.0 | Max:   600.0 | Temp:  10.000 | Div:     nan |
| Gen: 00115 | Mean:   600.0 | Min:   600.0 | Max:   600.0 | Temp:  10.000 | Div:     nan |
| Gen: 00116 | Mean:   600.0 | Min:   600.0 | Max:   600.0 | Temp:  10.000 | Div:     nan |
| Gen: 00117 | Mean:   600.0 | Min:   600.0 | Max:   600.0 | Temp:  10.000 | Div:     nan |
| Gen: 00118 | Mean:   600.0 | Min:   600.0 | Max:   600.0 | Temp:  10.000 | Div:     nan |
| Gen: 00119 | Mean:   600.0 | Min:   600.0 | Max:   600.0 | Temp:  10.000 | Div:     nan |
| Gen: 00120 | Mean:   600.0 | Min:   600.0 | Max:   600.0 | Temp:  10.000 | Div:     nan |
| Gen: 00121 | Mean:   600.0 | Min:   600.0 | Max:   600.0 | Temp:  10.000 | Div:     nan |
| Gen: 00122 | Mean:   600.0 | Min:   600.0 | Max:   600.0 | Temp:  10.000 | Div:     nan |
| Gen: 00123 | Mean:   600.0 | Min:   600.0 | Max:   600.0 | Temp:  10.000 | Div:     nan |
| Gen: 00124 | Mean:   600.0 | Min:   600.0 | Max:   600.0 | Temp:  10.000 | Div:     nan |
| Gen: 00125 | Mean:   600.0 | Min:   600.0 | Max:   600.0 | Temp:  10.000 | Div:     nan |
| Gen: 00126 | Mean:   600.0 | Min:   600.0 | Max:   600.0 | Temp:  10.000 | Div:     nan |
| Gen: 00127 | Mean:   600.0 | Min:   600.0 | Max:   600.0 | Temp:  10.000 | Div:     nan |
| Gen: 00128 | Mean:   600.0 | Min:   600.0 | Max:   600.0 | Temp:  10.000 | Div:     nan |
| Gen: 00129 | Mean:   600.0 | Min:   600.0 | Max:   600.0 | Temp:  10.000 | Div:     nan |
| Gen: 00130 | Mean:   600.0 | Min:   600.0 | Max:   600.0 | Temp:  10.000 | Div:     nan |
| Gen: 00131 | Mean:   600.0 | Min:   600.0 | Max:   600.0 | Temp:  10.000 | Div:     nan |
| Gen: 00132 | Mean:   600.0 | Min:   600.0 | Max:   600.0 | Temp:  10.000 | Div:     nan |
| Gen: 00133 | Mean:   600.0 | Min:   600.0 | Max:   600.0 | Temp:  10.000 | Div:     nan |
| Gen: 00134 | Mean:   600.0 | Min:   600.0 | Max:   600.0 | Temp:  10.000 | Div:     nan |
| Gen: 00135 | Mean:   600.0 | Min:   600.0 | Max:   600.0 | Temp:  10.000 | Div:     nan |
| Gen: 00136 | Mean:   600.0 | Min:   600.0 | Max:   600.0 | Temp:  10.000 | Div:     nan |
| Gen: 00137 | Mean:   600.0 | Min:   600.0 | Max:   600.0 | Temp:  10.000 | Div:     nan |
| Gen: 00138 | Mean:   600.0 | Min:   600.0 | Max:   600.0 | Temp:  10.000 | Div:     nan |
| Gen: 00139 | Mean:   600.0 | Min:   600.0 | Max:   600.0 | Temp:  10.000 | Div:     nan |
| Gen: 00140 | Mean:   600.0 | Min:   600.0 | Max:   600.0 | Temp:  10.000 | Div:     nan |
| Gen: 00141 | Mean:   600.0 | Min:   600.0 | Max:   600.0 | Temp:  10.000 | Div:     nan |
| Gen: 00142 | Mean:   600.0 | Min:   600.0 | Max:   600.0 | Temp:  10.000 | Div:     nan |
| Gen: 00143 | Mean:   600.0 | Min:   600.0 | Max:   600.0 | Temp:  10.000 | Div:     nan |
| Gen: 00144 | Mean:   600.0 | Min:   600.0 | Max:   600.0 | Temp:  10.000 | Div:     nan |
| Gen: 00145 | Mean:   600.0 | Min:   600.0 | Max:   600.0 | Temp:  10.000 | Div:     nan |
| Gen: 00146 | Mean:   600.0 | Min:   600.0 | Max:   600.0 | Temp:  10.000 | Div:     nan |
| Gen: 00147 | Mean:   600.0 | Min:   600.0 | Max:   600.0 | Temp:  10.000 | Div:     nan |
| Gen: 00148 | Mean:   600.0 | Min:   600.0 | Max:   600.0 | Temp:  10.000 | Div:     nan |
| Gen: 00149 | Mean:   600.0 | Min:   600.0 | Max:   600.0 | Temp:  10.000 | Div:     nan |
| Gen: 00150 | Mean:   600.0 | Min:   600.0 | Max:   600.0 | Temp:  10.000 | Div:     nan |
| Gen: 00151 | Mean:   600.0 | Min:   600.0 | Max:   600.0 | Temp:  10.000 | Div:     nan |
| Gen: 00152 | Mean:   600.0 | Min:   600.0 | Max:   600.0 | Temp:  10.000 | Div:     nan |
| Gen: 00153 | Mean:   600.0 | Min:   600.0 | Max:   600.0 | Temp:  10.000 | Div:     nan |
| Gen: 00154 | Mean:   600.0 | Min:   600.0 | Max:   600.0 | Temp:  10.000 | Div:     nan |
| Gen: 00155 | Mean:   600.0 | Min:   600.0 | Max:   600.0 | Temp:  10.000 | Div:     nan |
| Gen: 00156 | Mean:   600.0 | Min:   600.0 | Max:   600.0 | Temp:  10.000 | Div:     nan |
| Gen: 00157 | Mean:   600.0 | Min:   600.0 | Max:   600.0 | Temp:  10.000 | Div:     nan |
| Gen: 00158 | Mean:   600.0 | Min:   600.0 | Max:   600.0 | Temp:  10.000 | Div:     nan |
| Gen: 00159 | Mean:   600.0 | Min:   600.0 | Max:   600.0 | Temp:  10.000 | Div:     nan |
| Gen: 00160 | Mean:   600.0 | Min:   600.0 | Max:   600.0 | Temp:  10.000 | Div:     nan |
| Gen: 00161 | Mean:   600.0 | Min:   600.0 | Max:   600.0 | Temp:  10.000 | Div:     nan |
| Gen: 00162 | Mean:   600.0 | Min:   600.0 | Max:   600.0 | Temp:  10.000 | Div:     nan |
| Gen: 00163 | Mean:   600.0 | Min:   600.0 | Max:   600.0 | Temp:  10.000 | Div:     nan |
| Gen: 00164 | Mean:   600.0 | Min:   600.0 | Max:   600.0 | Temp:  10.000 | Div:     nan |
| Gen: 00165 | Mean:   600.0 | Min:   600.0 | Max:   600.0 | Temp:  10.000 | Div:     nan |
| Gen: 00166 | Mean:   600.0 | Min:   600.0 | Max:   600.0 | Temp:  10.000 | Div:     nan |
| Gen: 00167 | Mean:   600.0 | Min:   600.0 | Max:   600.0 | Temp:  10.000 | Div:     nan |
| Gen: 00168 | Mean:   600.0 | Min:   600.0 | Max:   600.0 | Temp:  10.000 | Div:     nan |
| Gen: 00169 | Mean:   600.0 | Min:   600.0 | Max:   600.0 | Temp:  10.000 | Div:     nan |
| Gen: 00170 | Mean:   600.0 | Min:   600.0 | Max:   600.0 | Temp:  10.000 | Div:     nan |
| Gen: 00171 | Mean:   600.0 | Min:   600.0 | Max:   600.0 | Temp:  10.000 | Div:     nan |
| Gen: 00172 | Mean:   600.0 | Min:   600.0 | Max:   600.0 | Temp:  10.000 | Div:     nan |
| Gen: 00173 | Mean:   600.0 | Min:   600.0 | Max:   600.0 | Temp:  10.000 | Div:     nan |
| Gen: 00174 | Mean:   600.0 | Min:   600.0 | Max:   600.0 | Temp:  10.000 | Div:     nan |
| Gen: 00175 | Mean:   600.0 | Min:   600.0 | Max:   600.0 | Temp:  10.000 | Div:     nan |
| Gen: 00176 | Mean:   600.0 | Min:   600.0 | Max:   600.0 | Temp:  10.000 | Div:     nan |
| Gen: 00177 | Mean:   600.0 | Min:   600.0 | Max:   600.0 | Temp:  10.000 | Div:     nan |
| Gen: 00178 | Mean:   600.0 | Min:   600.0 | Max:   600.0 | Temp:  10.000 | Div:     nan |
| Gen: 00179 | Mean:   600.0 | Min:   600.0 | Max:   600.0 | Temp:  10.000 | Div:     nan |
| Gen: 00180 | Mean:   600.0 | Min:   600.0 | Max:   600.0 | Temp:  10.000 | Div:     nan |
| Gen: 00181 | Mean:   600.0 | Min:   600.0 | Max:   600.0 | Temp:  10.000 | Div:     nan |
| Gen: 00182 | Mean:   600.0 | Min:   600.0 | Max:   600.0 | Temp:  10.000 | Div:     nan |
| Gen: 00183 | Mean:   600.0 | Min:   600.0 | Max:   600.0 | Temp:  10.000 | Div:     nan |
| Gen: 00184 | Mean:   600.0 | Min:   600.0 | Max:   600.0 | Temp:  10.000 | Div:     nan |
| Gen: 00185 | Mean:   600.0 | Min:   600.0 | Max:   600.0 | Temp:  10.000 | Div:     nan |
| Gen: 00186 | Mean:   600.0 | Min:   600.0 | Max:   600.0 | Temp:  10.000 | Div:     nan |
| Gen: 00187 | Mean:   600.0 | Min:   600.0 | Max:   600.0 | Temp:  10.000 | Div:     nan |
| Gen: 00188 | Mean:   600.0 | Min:   600.0 | Max:   600.0 | Temp:  10.000 | Div:     nan |
| Gen: 00189 | Mean:   600.0 | Min:   600.0 | Max:   600.0 | Temp:  10.000 | Div:     nan |
| Gen: 00190 | Mean:   600.0 | Min:   600.0 | Max:   600.0 | Temp:  10.000 | Div:     nan |
| Gen: 00191 | Mean:   600.0 | Min:   600.0 | Max:   600.0 | Temp:  10.000 | Div:     nan |
| Gen: 00192 | Mean:   600.0 | Min:   600.0 | Max:   600.0 | Temp:  10.000 | Div:     nan |
| Gen: 00193 | Mean:   600.0 | Min:   600.0 | Max:   600.0 | Temp:  10.000 | Div:     nan |
| Gen: 00194 | Mean:   600.0 | Min:   600.0 | Max:   600.0 | Temp:  10.000 | Div:     nan |
| Gen: 00195 | Mean:   600.0 | Min:   600.0 | Max:   600.0 | Temp:  10.000 | Div:     nan |
| Gen: 00196 | Mean:   600.0 | Min:   600.0 | Max:   600.0 | Temp:  10.000 | Div:     nan |
| Gen: 00197 | Mean:   600.0 | Min:   600.0 | Max:   600.0 | Temp:  10.000 | Div:     nan |
| Gen: 00198 | Mean:   600.0 | Min:   600.0 | Max:   600.0 | Temp:  10.000 | Div:     nan |
| Gen: 00199 | Mean:   600.0 | Min:   600.0 | Max:   600.0 | Temp:  10.000 | Div:     nan |
| Gen: 00200 | Mean:   600.0 | Min:   600.0 | Max:   600.0 | Temp:  10.000 | Div:     nan |
| Gen: 00201 | Mean:   600.0 | Min:   600.0 | Max:   600.0 | Temp:  10.000 | Div:     nan |
| Gen: 00202 | Mean:   600.0 | Min:   600.0 | Max:   600.0 | Temp:  10.000 | Div:     nan |
| Gen: 00203 | Mean:   600.0 | Min:   600.0 | Max:   600.0 | Temp:  10.000 | Div:     nan |
| Gen: 00204 | Mean:   600.0 | Min:   600.0 | Max:   600.0 | Temp:  10.000 | Div:     nan |
| Gen: 00205 | Mean:   600.0 | Min:   600.0 | Max:   600.0 | Temp:  10.000 | Div:     nan |
| Gen: 00206 | Mean:   600.0 | Min:   600.0 | Max:   600.0 | Temp:  10.000 | Div:     nan |
| Gen: 00207 | Mean:   600.0 | Min:   600.0 | Max:   600.0 | Temp:  10.000 | Div:     nan |
| Gen: 00208 | Mean:   600.0 | Min:   600.0 | Max:   600.0 | Temp:  10.000 | Div:     nan |
| Gen: 00209 | Mean:   600.0 | Min:   600.0 | Max:   600.0 | Temp:  10.000 | Div:     nan |
| Gen: 00210 | Mean:   600.0 | Min:   600.0 | Max:   600.0 | Temp:  10.000 | Div:     nan |
| Gen: 00211 | Mean:   600.0 | Min:   600.0 | Max:   600.0 | Temp:  10.000 | Div:     nan |
| Gen: 00212 | Mean:   600.0 | Min:   600.0 | Max:   600.0 | Temp:  10.000 | Div:     nan |
| Gen: 00213 | Mean:   600.0 | Min:   600.0 | Max:   600.0 | Temp:  10.000 | Div:     nan |
| Gen: 00214 | Mean:   600.0 | Min:   600.0 | Max:   600.0 | Temp:  10.000 | Div:     nan |
| Gen: 00215 | Mean:   600.0 | Min:   600.0 | Max:   600.0 | Temp:  10.000 | Div:     nan |
| Gen: 00216 | Mean:   600.0 | Min:   600.0 | Max:   600.0 | Temp:  10.000 | Div:     nan |
| Gen: 00217 | Mean:   600.0 | Min:   600.0 | Max:   600.0 | Temp:  10.000 | Div:     nan |
| Gen: 00218 | Mean:   600.0 | Min:   600.0 | Max:   600.0 | Temp:  10.000 | Div:     nan |
| Gen: 00219 | Mean:   600.0 | Min:   600.0 | Max:   600.0 | Temp:  10.000 | Div:     nan |
| Gen: 00220 | Mean:   600.0 | Min:   600.0 | Max:   600.0 | Temp:  10.000 | Div:     nan |
| Gen: 00221 | Mean:   600.0 | Min:   600.0 | Max:   600.0 | Temp:  10.000 | Div:     nan |
| Gen: 00222 | Mean:   600.0 | Min:   600.0 | Max:   600.0 | Temp:  10.000 | Div:     nan |
| Gen: 00223 | Mean:   600.0 | Min:   600.0 | Max:   600.0 | Temp:  10.000 | Div:     nan |
| Gen: 00224 | Mean:   600.0 | Min:   600.0 | Max:   600.0 | Temp:  10.000 | Div:     nan |
| Gen: 00225 | Mean:   600.0 | Min:   600.0 | Max:   600.0 | Temp:  10.000 | Div:     nan |
| Gen: 00226 | Mean:   600.0 | Min:   600.0 | Max:   600.0 | Temp:  10.000 | Div:     nan |
| Gen: 00227 | Mean:   600.0 | Min:   600.0 | Max:   600.0 | Temp:  10.000 | Div:     nan |
| Gen: 00228 | Mean:   600.0 | Min:   600.0 | Max:   600.0 | Temp:  10.000 | Div:     nan |
| Gen: 00229 | Mean:   600.0 | Min:   600.0 | Max:   600.0 | Temp:  10.000 | Div:     nan |
| Gen: 00230 | Mean:   600.0 | Min:   600.0 | Max:   600.0 | Temp:  10.000 | Div:     nan |
| Gen: 00231 | Mean:   600.0 | Min:   600.0 | Max:   600.0 | Temp:  10.000 | Div:     nan |
| Gen: 00232 | Mean:   600.0 | Min:   600.0 | Max:   600.0 | Temp:  10.000 | Div:     nan |
| Gen: 00233 | Mean:   600.0 | Min:   600.0 | Max:   600.0 | Temp:  10.000 | Div:     nan |
| Gen: 00234 | Mean:   600.0 | Min:   600.0 | Max:   600.0 | Temp:  10.000 | Div:     nan |
| Gen: 00235 | Mean:   600.0 | Min:   600.0 | Max:   600.0 | Temp:  10.000 | Div:     nan |
| Gen: 00236 | Mean:   600.0 | Min:   600.0 | Max:   600.0 | Temp:  10.000 | Div:     nan |
| Gen: 00237 | Mean:   600.0 | Min:   600.0 | Max:   600.0 | Temp:  10.000 | Div:     nan |
| Gen: 00238 | Mean:   600.0 | Min:   600.0 | Max:   600.0 | Temp:  10.000 | Div:     nan |
| Gen: 00239 | Mean:   600.0 | Min:   600.0 | Max:   600.0 | Temp:  10.000 | Div:     nan |
| Gen: 00240 | Mean:   600.0 | Min:   600.0 | Max:   600.0 | Temp:  10.000 | Div:     nan |
| Gen: 00241 | Mean:   600.0 | Min:   600.0 | Max:   600.0 | Temp:  10.000 | Div:     nan |
| Gen: 00242 | Mean:   600.0 | Min:   600.0 | Max:   600.0 | Temp:  10.000 | Div:     nan |
| Gen: 00243 | Mean:   600.0 | Min:   600.0 | Max:   600.0 | Temp:  10.000 | Div:     nan |
| Gen: 00244 | Mean:   600.0 | Min:   600.0 | Max:   600.0 | Temp:  10.000 | Div:     nan |
| Gen: 00245 | Mean:   600.0 | Min:   600.0 | Max:   600.0 | Temp:  10.000 | Div:     nan |
| Gen: 00246 | Mean:   600.0 | Min:   600.0 | Max:   600.0 | Temp:  10.000 | Div:     nan |
| Gen: 00247 | Mean:   600.0 | Min:   600.0 | Max:   600.0 | Temp:  10.000 | Div:     nan |
| Gen: 00248 | Mean:   600.0 | Min:   600.0 | Max:   600.0 | Temp:  10.000 | Div:     nan |
| Gen: 00249 | Mean:   600.0 | Min:   600.0 | Max:   600.0 | Temp:  10.000 | Div:     nan |
| Gen: 00250 | Mean:   600.0 | Min:   600.0 | Max:   600.0 | Temp:  10.000 | Div:     nan |
| Gen: 00251 | Mean:   600.0 | Min:   600.0 | Max:   600.0 | Temp:  10.000 | Div:     nan |
| Gen: 00252 | Mean:   600.0 | Min:   600.0 | Max:   600.0 | Temp:  10.000 | Div:     nan |
| Gen: 00253 | Mean:   600.0 | Min:   600.0 | Max:   600.0 | Temp:  10.000 | Div:     nan |
| Gen: 00254 | Mean:   600.0 | Min:   600.0 | Max:   600.0 | Temp:  10.000 | Div:     nan |
| Gen: 00255 | Mean:   600.0 | Min:   600.0 | Max:   600.0 | Temp:  10.000 | Div:     nan |
| Gen: 00256 | Mean:   600.0 | Min:   600.0 | Max:   600.0 | Temp:  10.000 | Div:     nan |
| Gen: 00257 | Mean:   600.0 | Min:   600.0 | Max:   600.0 | Temp:  10.000 | Div:     nan |
| Gen: 00258 | Mean:   600.0 | Min:   600.0 | Max:   600.0 | Temp:  10.000 | Div:     nan |
| Gen: 00259 | Mean:   600.0 | Min:   600.0 | Max:   600.0 | Temp:  10.000 | Div:     nan |
| Gen: 00260 | Mean:   600.0 | Min:   600.0 | Max:   600.0 | Temp:  10.000 | Div:     nan |
| Gen: 00261 | Mean:   600.0 | Min:   600.0 | Max:   600.0 | Temp:  10.000 | Div:     nan |
| Gen: 00262 | Mean:   600.0 | Min:   600.0 | Max:   600.0 | Temp:  10.000 | Div:     nan |
| Gen: 00263 | Mean:   600.0 | Min:   600.0 | Max:   600.0 | Temp:  10.000 | Div:     nan |
| Gen: 00264 | Mean:   600.0 | Min:   600.0 | Max:   600.0 | Temp:  10.000 | Div:     nan |
| Gen: 00265 | Mean:   600.0 | Min:   600.0 | Max:   600.0 | Temp:  10.000 | Div:     nan |
| Gen: 00266 | Mean:   600.0 | Min:   600.0 | Max:   600.0 | Temp:  10.000 | Div:     nan |
| Gen: 00267 | Mean:   600.0 | Min:   600.0 | Max:   600.0 | Temp:  10.000 | Div:     nan |
| Gen: 00268 | Mean:   600.0 | Min:   600.0 | Max:   600.0 | Temp:  10.000 | Div:     nan |
| Gen: 00269 | Mean:   600.0 | Min:   600.0 | Max:   600.0 | Temp:  10.000 | Div:     nan |
| Gen: 00270 | Mean:   600.0 | Min:   600.0 | Max:   600.0 | Temp:  10.000 | Div:     nan |
| Gen: 00271 | Mean:   600.0 | Min:   600.0 | Max:   600.0 | Temp:  10.000 | Div:     nan |
| Gen: 00272 | Mean:   600.0 | Min:   600.0 | Max:   600.0 | Temp:  10.000 | Div:     nan |
| Gen: 00273 | Mean:   600.0 | Min:   600.0 | Max:   600.0 | Temp:  10.000 | Div:     nan |
| Gen: 00274 | Mean:   600.0 | Min:   600.0 | Max:   600.0 | Temp:  10.000 | Div:     nan |
| Gen: 00275 | Mean:   600.0 | Min:   600.0 | Max:   600.0 | Temp:  10.000 | Div:     nan |
| Gen: 00276 | Mean:   600.0 | Min:   600.0 | Max:   600.0 | Temp:  10.000 | Div:     nan |
| Gen: 00277 | Mean:   600.0 | Min:   600.0 | Max:   600.0 | Temp:  10.000 | Div:     nan |
| Gen: 00278 | Mean:   600.0 | Min:   600.0 | Max:   600.0 | Temp:  10.000 | Div:     nan |
| Gen: 00279 | Mean:   600.0 | Min:   600.0 | Max:   600.0 | Temp:  10.000 | Div:     nan |
| Gen: 00280 | Mean:   600.0 | Min:   600.0 | Max:   600.0 | Temp:  10.000 | Div:     nan |
| Gen: 00281 | Mean:   600.0 | Min:   600.0 | Max:   600.0 | Temp:  10.000 | Div:     nan |
| Gen: 00282 | Mean:   600.0 | Min:   600.0 | Max:   600.0 | Temp:  10.000 | Div:     nan |
| Gen: 00283 | Mean:   600.0 | Min:   600.0 | Max:   600.0 | Temp:  10.000 | Div:     nan |
| Gen: 00284 | Mean:   600.0 | Min:   600.0 | Max:   600.0 | Temp:  10.000 | Div:     nan |
| Gen: 00285 | Mean:   600.0 | Min:   600.0 | Max:   600.0 | Temp:  10.000 | Div:     nan |
| Gen: 00286 | Mean:   600.0 | Min:   600.0 | Max:   600.0 | Temp:  10.000 | Div:     nan |
| Gen: 00287 | Mean:   600.0 | Min:   600.0 | Max:   600.0 | Temp:  10.000 | Div:     nan |
| Gen: 00288 | Mean:   600.0 | Min:   600.0 | Max:   600.0 | Temp:  10.000 | Div:     nan |
| Gen: 00289 | Mean:   600.0 | Min:   600.0 | Max:   600.0 | Temp:  10.000 | Div:     nan |
| Gen: 00290 | Mean:   600.0 | Min:   600.0 | Max:   600.0 | Temp:  10.000 | Div:     nan |
| Gen: 00291 | Mean:   600.0 | Min:   600.0 | Max:   600.0 | Temp:  10.000 | Div:     nan |
| Gen: 00292 | Mean:   600.0 | Min:   600.0 | Max:   600.0 | Temp:  10.000 | Div:     nan |
| Gen: 00293 | Mean:   600.0 | Min:   600.0 | Max:   600.0 | Temp:  10.000 | Div:     nan |
| Gen: 00294 | Mean:   600.0 | Min:   600.0 | Max:   600.0 | Temp:  10.000 | Div:     nan |
| Gen: 00295 | Mean:   600.0 | Min:   600.0 | Max:   600.0 | Temp:  10.000 | Div:     nan |
| Gen: 00296 | Mean:   600.0 | Min:   600.0 | Max:   600.0 | Temp:  10.000 | Div:     nan |
| Gen: 00297 | Mean:   600.0 | Min:   600.0 | Max:   600.0 | Temp:  10.000 | Div:     nan |
| Gen: 00298 | Mean:   600.0 | Min:   600.0 | Max:   600.0 | Temp:  10.000 | Div:     nan |
| Gen: 00299 | Mean:   600.0 | Min:   600.0 | Max:   600.0 | Temp:  10.000 | Div:     nan |
| Gen: 00300 | Mean:   600.0 | Min:   600.0 | Max:   600.0 | Temp:  10.000 | Div:     nan |
| Gen: 00301 | Mean:   600.0 | Min:   600.0 | Max:   600.0 | Temp:  10.000 | Div:     nan |
| Gen: 00302 | Mean:   600.0 | Min:   600.0 | Max:   600.0 | Temp:  10.000 | Div:     nan |
| Gen: 00303 | Mean:   600.0 | Min:   600.0 | Max:   600.0 | Temp:  10.000 | Div:     nan |
| Gen: 00304 | Mean:   600.0 | Min:   600.0 | Max:   600.0 | Temp:  10.000 | Div:     nan |
| Gen: 00305 | Mean:   600.0 | Min:   600.0 | Max:   600.0 | Temp:  10.000 | Div:     nan |
| Gen: 00306 | Mean:   600.0 | Min:   600.0 | Max:   600.0 | Temp:  10.000 | Div:     nan |
| Gen: 00307 | Mean:   600.0 | Min:   600.0 | Max:   600.0 | Temp:  10.000 | Div:     nan |
| Gen: 00308 | Mean:   600.0 | Min:   600.0 | Max:   600.0 | Temp:  10.000 | Div:     nan |
| Gen: 00309 | Mean:   600.0 | Min:   600.0 | Max:   600.0 | Temp:  10.000 | Div:     nan |
| Gen: 00310 | Mean:   600.0 | Min:   600.0 | Max:   600.0 | Temp:  10.000 | Div:     nan |
| Gen: 00311 | Mean:   600.0 | Min:   600.0 | Max:   600.0 | Temp:  10.000 | Div:     nan |
| Gen: 00312 | Mean:   600.0 | Min:   600.0 | Max:   600.0 | Temp:  10.000 | Div:     nan |
| Gen: 00313 | Mean:   600.0 | Min:   600.0 | Max:   600.0 | Temp:  10.000 | Div:     nan |
| Gen: 00314 | Mean:   600.0 | Min:   600.0 | Max:   600.0 | Temp:  10.000 | Div:     nan |
| Gen: 00315 | Mean:   600.0 | Min:   600.0 | Max:   600.0 | Temp:  10.000 | Div:     nan |
| Gen: 00316 | Mean:   600.0 | Min:   600.0 | Max:   600.0 | Temp:  10.000 | Div:     nan |
| Gen: 00317 | Mean:   600.0 | Min:   600.0 | Max:   600.0 | Temp:  10.000 | Div:     nan |
| Gen: 00318 | Mean:   600.0 | Min:   600.0 | Max:   600.0 | Temp:  10.000 | Div:     nan |
| Gen: 00319 | Mean:   600.0 | Min:   600.0 | Max:   600.0 | Temp:  10.000 | Div:     nan |
| Gen: 00320 | Mean:   600.0 | Min:   600.0 | Max:   600.0 | Temp:  10.000 | Div:     nan |
| Gen: 00321 | Mean:   600.0 | Min:   600.0 | Max:   600.0 | Temp:  10.000 | Div:     nan |
| Gen: 00322 | Mean:   600.0 | Min:   600.0 | Max:   600.0 | Temp:  10.000 | Div:     nan |
| Gen: 00323 | Mean:   600.0 | Min:   600.0 | Max:   600.0 | Temp:  10.000 | Div:     nan |
| Gen: 00324 | Mean:   600.0 | Min:   600.0 | Max:   600.0 | Temp:  10.000 | Div:     nan |
| Gen: 00325 | Mean:   600.0 | Min:   600.0 | Max:   600.0 | Temp:  10.000 | Div:     nan |
| Gen: 00326 | Mean:   600.0 | Min:   600.0 | Max:   600.0 | Temp:  10.000 | Div:     nan |
| Gen: 00327 | Mean:   600.0 | Min:   600.0 | Max:   600.0 | Temp:  10.000 | Div:     nan |
| Gen: 00328 | Mean:   600.0 | Min:   600.0 | Max:   600.0 | Temp:  10.000 | Div:     nan |
| Gen: 00329 | Mean:   600.0 | Min:   600.0 | Max:   600.0 | Temp:  10.000 | Div:     nan |
| Gen: 00330 | Mean:   600.0 | Min:   600.0 | Max:   600.0 | Temp:  10.000 | Div:     nan |
| Gen: 00331 | Mean:   600.0 | Min:   600.0 | Max:   600.0 | Temp:  10.000 | Div:     nan |
| Gen: 00332 | Mean:   600.0 | Min:   600.0 | Max:   600.0 | Temp:  10.000 | Div:     nan |
| Gen: 00333 | Mean:   600.0 | Min:   600.0 | Max:   600.0 | Temp:  10.000 | Div:     nan |
| Gen: 00334 | Mean:   600.0 | Min:   600.0 | Max:   600.0 | Temp:  10.000 | Div:     nan |
| Gen: 00335 | Mean:   600.0 | Min:   600.0 | Max:   600.0 | Temp:  10.000 | Div:     nan |
| Gen: 00336 | Mean:   600.0 | Min:   600.0 | Max:   600.0 | Temp:  10.000 | Div:     nan |
| Gen: 00337 | Mean:   600.0 | Min:   600.0 | Max:   600.0 | Temp:  10.000 | Div:     nan |
| Gen: 00338 | Mean:   600.0 | Min:   600.0 | Max:   600.0 | Temp:  10.000 | Div:     nan |
| Gen: 00339 | Mean:   600.0 | Min:   600.0 | Max:   600.0 | Temp:  10.000 | Div:     nan |
| Gen: 00340 | Mean:   600.0 | Min:   600.0 | Max:   600.0 | Temp:  10.000 | Div:     nan |
| Gen: 00341 | Mean:   600.0 | Min:   600.0 | Max:   600.0 | Temp:  10.000 | Div:     nan |
| Gen: 00342 | Mean:   600.0 | Min:   600.0 | Max:   600.0 | Temp:  10.000 | Div:     nan |
| Gen: 00343 | Mean:   600.0 | Min:   600.0 | Max:   600.0 | Temp:  10.000 | Div:     nan |
| Gen: 00344 | Mean:   600.0 | Min:   600.0 | Max:   600.0 | Temp:  10.000 | Div:     nan |
| Gen: 00345 | Mean:   600.0 | Min:   600.0 | Max:   600.0 | Temp:  10.000 | Div:     nan |
| Gen: 00346 | Mean:   600.0 | Min:   600.0 | Max:   600.0 | Temp:  10.000 | Div:     nan |
| Gen: 00347 | Mean:   600.0 | Min:   600.0 | Max:   600.0 | Temp:  10.000 | Div:     nan |
| Gen: 00348 | Mean:   600.0 | Min:   600.0 | Max:   600.0 | Temp:  10.000 | Div:     nan |
| Gen: 00349 | Mean:   600.0 | Min:   600.0 | Max:   600.0 | Temp:  10.000 | Div:     nan |
| Gen: 00350 | Mean:   600.0 | Min:   600.0 | Max:   600.0 | Temp:  10.000 | Div:     nan |
| Gen: 00351 | Mean:   600.0 | Min:   600.0 | Max:   600.0 | Temp:  10.000 | Div:     nan |
| Gen: 00352 | Mean:   600.0 | Min:   600.0 | Max:   600.0 | Temp:  10.000 | Div:     nan |
| Gen: 00353 | Mean:   600.0 | Min:   600.0 | Max:   600.0 | Temp:  10.000 | Div:     nan |
| Gen: 00354 | Mean:   600.0 | Min:   600.0 | Max:   600.0 | Temp:  10.000 | Div:     nan |
| Gen: 00355 | Mean:   600.0 | Min:   600.0 | Max:   600.0 | Temp:  10.000 | Div:     nan |
| Gen: 00356 | Mean:   600.0 | Min:   600.0 | Max:   600.0 | Temp:  10.000 | Div:     nan |
| Gen: 00357 | Mean:   600.0 | Min:   600.0 | Max:   600.0 | Temp:  10.000 | Div:     nan |
| Gen: 00358 | Mean:   600.0 | Min:   600.0 | Max:   600.0 | Temp:  10.000 | Div:     nan |
| Gen: 00359 | Mean:   600.0 | Min:   600.0 | Max:   600.0 | Temp:  10.000 | Div:     nan |
| Gen: 00360 | Mean:   600.0 | Min:   600.0 | Max:   600.0 | Temp:  10.000 | Div:     nan |
| Gen: 00361 | Mean:   600.0 | Min:   600.0 | Max:   600.0 | Temp:  10.000 | Div:     nan |
| Gen: 00362 | Mean:   600.0 | Min:   600.0 | Max:   600.0 | Temp:  10.000 | Div:     nan |
| Gen: 00363 | Mean:   600.0 | Min:   600.0 | Max:   600.0 | Temp:  10.000 | Div:     nan |
| Gen: 00364 | Mean:   600.0 | Min:   600.0 | Max:   600.0 | Temp:  10.000 | Div:     nan |
| Gen: 00365 | Mean:   600.0 | Min:   600.0 | Max:   600.0 | Temp:  10.000 | Div:     nan |
| Gen: 00366 | Mean:   600.0 | Min:   600.0 | Max:   600.0 | Temp:  10.000 | Div:     nan |
| Gen: 00367 | Mean:   600.0 | Min:   600.0 | Max:   600.0 | Temp:  10.000 | Div:     nan |
| Gen: 00368 | Mean:   600.0 | Min:   600.0 | Max:   600.0 | Temp:  10.000 | Div:     nan |
| Gen: 00369 | Mean:   600.0 | Min:   600.0 | Max:   600.0 | Temp:  10.000 | Div:     nan |
| Gen: 00370 | Mean:   600.0 | Min:   600.0 | Max:   600.0 | Temp:  10.000 | Div:     nan |
| Gen: 00371 | Mean:   600.0 | Min:   600.0 | Max:   600.0 | Temp:  10.000 | Div:     nan |
| Gen: 00372 | Mean:   600.0 | Min:   600.0 | Max:   600.0 | Temp:  10.000 | Div:     nan |
| Gen: 00373 | Mean:   600.0 | Min:   600.0 | Max:   600.0 | Temp:  10.000 | Div:     nan |
| Gen: 00374 | Mean:   600.0 | Min:   600.0 | Max:   600.0 | Temp:  10.000 | Div:     nan |
| Gen: 00375 | Mean:   600.0 | Min:   600.0 | Max:   600.0 | Temp:  10.000 | Div:     nan |
| Gen: 00376 | Mean:   600.0 | Min:   600.0 | Max:   600.0 | Temp:  10.000 | Div:     nan |
| Gen: 00377 | Mean:   600.0 | Min:   600.0 | Max:   600.0 | Temp:  10.000 | Div:     nan |
| Gen: 00378 | Mean:   600.0 | Min:   600.0 | Max:   600.0 | Temp:  10.000 | Div:     nan |
| Gen: 00379 | Mean:   600.0 | Min:   600.0 | Max:   600.0 | Temp:  10.000 | Div:     nan |
| Gen: 00380 | Mean:   600.0 | Min:   600.0 | Max:   600.0 | Temp:  10.000 | Div:     nan |
| Gen: 00381 | Mean:   600.0 | Min:   600.0 | Max:   600.0 | Temp:  10.000 | Div:     nan |
| Gen: 00382 | Mean:   600.0 | Min:   600.0 | Max:   600.0 | Temp:  10.000 | Div:     nan |
| Gen: 00383 | Mean:   600.0 | Min:   600.0 | Max:   600.0 | Temp:  10.000 | Div:     nan |
| Gen: 00384 | Mean:   600.0 | Min:   600.0 | Max:   600.0 | Temp:  10.000 | Div:     nan |
| Gen: 00385 | Mean:   600.0 | Min:   600.0 | Max:   600.0 | Temp:  10.000 | Div:     nan |
| Gen: 00386 | Mean:   600.0 | Min:   600.0 | Max:   600.0 | Temp:  10.000 | Div:     nan |
| Gen: 00387 | Mean:   600.0 | Min:   600.0 | Max:   600.0 | Temp:  10.000 | Div:     nan |
| Gen: 00388 | Mean:   600.0 | Min:   600.0 | Max:   600.0 | Temp:  10.000 | Div:     nan |
| Gen: 00389 | Mean:   600.0 | Min:   600.0 | Max:   600.0 | Temp:  10.000 | Div:     nan |
| Gen: 00390 | Mean:   600.0 | Min:   600.0 | Max:   600.0 | Temp:  10.000 | Div:     nan |
| Gen: 00391 | Mean:   600.0 | Min:   600.0 | Max:   600.0 | Temp:  10.000 | Div:     nan |
| Gen: 00392 | Mean:   600.0 | Min:   600.0 | Max:   600.0 | Temp:  10.000 | Div:     nan |
| Gen: 00393 | Mean:   600.0 | Min:   600.0 | Max:   600.0 | Temp:  10.000 | Div:     nan |
| Gen: 00394 | Mean:   600.0 | Min:   600.0 | Max:   600.0 | Temp:  10.000 | Div:     nan |
| Gen: 00395 | Mean:   600.0 | Min:   600.0 | Max:   600.0 | Temp:  10.000 | Div:     nan |
| Gen: 00396 | Mean:   600.0 | Min:   600.0 | Max:   600.0 | Temp:  10.000 | Div:     nan |
| Gen: 00397 | Mean:   600.0 | Min:   600.0 | Max:   600.0 | Temp:  10.000 | Div:     nan |
| Gen: 00398 | Mean:   600.0 | Min:   600.0 | Max:   600.0 | Temp:  10.000 | Div:     nan |
| Gen: 00399 | Mean:   600.0 | Min:   600.0 | Max:   600.0 | Temp:  10.000 | Div:     nan |
| Gen: 00400 | Mean:   600.0 | Min:   600.0 | Max:   600.0 | Temp:  10.000 | Div:     nan |
| Gen: 00401 | Mean:   600.0 | Min:   600.0 | Max:   600.0 | Temp:  10.000 | Div:     nan |
| Gen: 00402 | Mean:   600.0 | Min:   600.0 | Max:   600.0 | Temp:  10.000 | Div:     nan |
| Gen: 00403 | Mean:   600.0 | Min:   600.0 | Max:   600.0 | Temp:  10.000 | Div:     nan |
| Gen: 00404 | Mean:   600.0 | Min:   600.0 | Max:   600.0 | Temp:  10.000 | Div:     nan |
| Gen: 00405 | Mean:   600.0 | Min:   600.0 | Max:   600.0 | Temp:  10.000 | Div:     nan |
| Gen: 00406 | Mean:   600.0 | Min:   600.0 | Max:   600.0 | Temp:  10.000 | Div:     nan |
| Gen: 00407 | Mean:   600.0 | Min:   600.0 | Max:   600.0 | Temp:  10.000 | Div:     nan |
| Gen: 00408 | Mean:   600.0 | Min:   600.0 | Max:   600.0 | Temp:  10.000 | Div:     nan |
| Gen: 00409 | Mean:   600.0 | Min:   600.0 | Max:   600.0 | Temp:  10.000 | Div:     nan |
| Gen: 00410 | Mean:   600.0 | Min:   600.0 | Max:   600.0 | Temp:  10.000 | Div:     nan |
| Gen: 00411 | Mean:   600.0 | Min:   600.0 | Max:   600.0 | Temp:  10.000 | Div:     nan |
| Gen: 00412 | Mean:   600.0 | Min:   600.0 | Max:   600.0 | Temp:  10.000 | Div:     nan |
| Gen: 00413 | Mean:   600.0 | Min:   600.0 | Max:   600.0 | Temp:  10.000 | Div:     nan |
| Gen: 00414 | Mean:   600.0 | Min:   600.0 | Max:   600.0 | Temp:  10.000 | Div:     nan |
| Gen: 00415 | Mean:   600.0 | Min:   600.0 | Max:   600.0 | Temp:  10.000 | Div:     nan |
| Gen: 00416 | Mean:   600.0 | Min:   600.0 | Max:   600.0 | Temp:  10.000 | Div:     nan |
| Gen: 00417 | Mean:   600.0 | Min:   600.0 | Max:   600.0 | Temp:  10.000 | Div:     nan |
| Gen: 00418 | Mean:   600.0 | Min:   600.0 | Max:   600.0 | Temp:  10.000 | Div:     nan |
| Gen: 00419 | Mean:   600.0 | Min:   600.0 | Max:   600.0 | Temp:  10.000 | Div:     nan |
| Gen: 00420 | Mean:   600.0 | Min:   600.0 | Max:   600.0 | Temp:  10.000 | Div:     nan |
| Gen: 00421 | Mean:   600.0 | Min:   600.0 | Max:   600.0 | Temp:  10.000 | Div:     nan |
| Gen: 00422 | Mean:   600.0 | Min:   600.0 | Max:   600.0 | Temp:  10.000 | Div:     nan |
| Gen: 00423 | Mean:   600.0 | Min:   600.0 | Max:   600.0 | Temp:  10.000 | Div:     nan |
| Gen: 00424 | Mean:   600.0 | Min:   600.0 | Max:   600.0 | Temp:  10.000 | Div:     nan |
| Gen: 00425 | Mean:   600.0 | Min:   600.0 | Max:   600.0 | Temp:  10.000 | Div:     nan |
| Gen: 00426 | Mean:   600.0 | Min:   600.0 | Max:   600.0 | Temp:  10.000 | Div:     nan |
| Gen: 00427 | Mean:   600.0 | Min:   600.0 | Max:   600.0 | Temp:  10.000 | Div:     nan |
| Gen: 00428 | Mean:   600.0 | Min:   600.0 | Max:   600.0 | Temp:  10.000 | Div:     nan |
| Gen: 00429 | Mean:   600.0 | Min:   600.0 | Max:   600.0 | Temp:  10.000 | Div:     nan |
| Gen: 00430 | Mean:   600.0 | Min:   600.0 | Max:   600.0 | Temp:  10.000 | Div:     nan |
| Gen: 00431 | Mean:   600.0 | Min:   600.0 | Max:   600.0 | Temp:  10.000 | Div:     nan |
| Gen: 00432 | Mean:   600.0 | Min:   600.0 | Max:   600.0 | Temp:  10.000 | Div:     nan |
| Gen: 00433 | Mean:   600.0 | Min:   600.0 | Max:   600.0 | Temp:  10.000 | Div:     nan |
| Gen: 00434 | Mean:   600.0 | Min:   600.0 | Max:   600.0 | Temp:  10.000 | Div:     nan |
| Gen: 00435 | Mean:   600.0 | Min:   600.0 | Max:   600.0 | Temp:  10.000 | Div:     nan |
| Gen: 00436 | Mean:   600.0 | Min:   600.0 | Max:   600.0 | Temp:  10.000 | Div:     nan |
| Gen: 00437 | Mean:   600.0 | Min:   600.0 | Max:   600.0 | Temp:  10.000 | Div:     nan |
| Gen: 00438 | Mean:   600.0 | Min:   600.0 | Max:   600.0 | Temp:  10.000 | Div:     nan |
| Gen: 00439 | Mean:   600.0 | Min:   600.0 | Max:   600.0 | Temp:  10.000 | Div:     nan |
| Gen: 00440 | Mean:   600.0 | Min:   600.0 | Max:   600.0 | Temp:  10.000 | Div:     nan |
| Gen: 00441 | Mean:   600.0 | Min:   600.0 | Max:   600.0 | Temp:  10.000 | Div:     nan |
| Gen: 00442 | Mean:   600.0 | Min:   600.0 | Max:   600.0 | Temp:  10.000 | Div:     nan |
| Gen: 00443 | Mean:   600.0 | Min:   600.0 | Max:   600.0 | Temp:  10.000 | Div:     nan |
| Gen: 00444 | Mean:   600.0 | Min:   600.0 | Max:   600.0 | Temp:  10.000 | Div:     nan |
| Gen: 00445 | Mean:   600.0 | Min:   600.0 | Max:   600.0 | Temp:  10.000 | Div:     nan |
| Gen: 00446 | Mean:   600.0 | Min:   600.0 | Max:   600.0 | Temp:  10.000 | Div:     nan |
| Gen: 00447 | Mean:   600.0 | Min:   600.0 | Max:   600.0 | Temp:  10.000 | Div:     nan |
| Gen: 00448 | Mean:   600.0 | Min:   600.0 | Max:   600.0 | Temp:  10.000 | Div:     nan |
| Gen: 00449 | Mean:   600.0 | Min:   600.0 | Max:   600.0 | Temp:  10.000 | Div:     nan |
| Gen: 00450 | Mean:   600.0 | Min:   600.0 | Max:   600.0 | Temp:  10.000 | Div:     nan |
| Gen: 00451 | Mean:   600.0 | Min:   600.0 | Max:   600.0 | Temp:  10.000 | Div:     nan |
| Gen: 00452 | Mean:   600.0 | Min:   600.0 | Max:   600.0 | Temp:  10.000 | Div:     nan |
| Gen: 00453 | Mean:   600.0 | Min:   600.0 | Max:   600.0 | Temp:  10.000 | Div:     nan |
| Gen: 00454 | Mean:   600.0 | Min:   600.0 | Max:   600.0 | Temp:  10.000 | Div:     nan |
| Gen: 00455 | Mean:   600.0 | Min:   600.0 | Max:   600.0 | Temp:  10.000 | Div:     nan |
| Gen: 00456 | Mean:   600.0 | Min:   600.0 | Max:   600.0 | Temp:  10.000 | Div:     nan |
| Gen: 00457 | Mean:   600.0 | Min:   600.0 | Max:   600.0 | Temp:  10.000 | Div:     nan |
| Gen: 00458 | Mean:   600.0 | Min:   600.0 | Max:   600.0 | Temp:  10.000 | Div:     nan |
| Gen: 00459 | Mean:   600.0 | Min:   600.0 | Max:   600.0 | Temp:  10.000 | Div:     nan |
| Gen: 00460 | Mean:   600.0 | Min:   600.0 | Max:   600.0 | Temp:  10.000 | Div:     nan |
| Gen: 00461 | Mean:   600.0 | Min:   600.0 | Max:   600.0 | Temp:  10.000 | Div:     nan |
| Gen: 00462 | Mean:   600.0 | Min:   600.0 | Max:   600.0 | Temp:  10.000 | Div:     nan |
| Gen: 00463 | Mean:   600.0 | Min:   600.0 | Max:   600.0 | Temp:  10.000 | Div:     nan |
| Gen: 00464 | Mean:   600.0 | Min:   600.0 | Max:   600.0 | Temp:  10.000 | Div:     nan |
| Gen: 00465 | Mean:   600.0 | Min:   600.0 | Max:   600.0 | Temp:  10.000 | Div:     nan |
| Gen: 00466 | Mean:   600.0 | Min:   600.0 | Max:   600.0 | Temp:  10.000 | Div:     nan |
| Gen: 00467 | Mean:   600.0 | Min:   600.0 | Max:   600.0 | Temp:  10.000 | Div:     nan |
| Gen: 00468 | Mean:   600.0 | Min:   600.0 | Max:   600.0 | Temp:  10.000 | Div:     nan |
| Gen: 00469 | Mean:   600.0 | Min:   600.0 | Max:   600.0 | Temp:  10.000 | Div:     nan |
| Gen: 00470 | Mean:   600.0 | Min:   600.0 | Max:   600.0 | Temp:  10.000 | Div:     nan |
| Gen: 00471 | Mean:   600.0 | Min:   600.0 | Max:   600.0 | Temp:  10.000 | Div:     nan |
| Gen: 00472 | Mean:   600.0 | Min:   600.0 | Max:   600.0 | Temp:  10.000 | Div:     nan |
| Gen: 00473 | Mean:   600.0 | Min:   600.0 | Max:   600.0 | Temp:  10.000 | Div:     nan |
| Gen: 00474 | Mean:   600.0 | Min:   600.0 | Max:   600.0 | Temp:  10.000 | Div:     nan |
| Gen: 00475 | Mean:   600.0 | Min:   600.0 | Max:   600.0 | Temp:  10.000 | Div:     nan |
| Gen: 00476 | Mean:   600.0 | Min:   600.0 | Max:   600.0 | Temp:  10.000 | Div:     nan |
| Gen: 00477 | Mean:   600.0 | Min:   600.0 | Max:   600.0 | Temp:  10.000 | Div:     nan |
| Gen: 00478 | Mean:   600.0 | Min:   600.0 | Max:   600.0 | Temp:  10.000 | Div:     nan |
| Gen: 00479 | Mean:   600.0 | Min:   600.0 | Max:   600.0 | Temp:  10.000 | Div:     nan |
| Gen: 00480 | Mean:   600.0 | Min:   600.0 | Max:   600.0 | Temp:  10.000 | Div:     nan |
| Gen: 00481 | Mean:   600.0 | Min:   600.0 | Max:   600.0 | Temp:  10.000 | Div:     nan |
| Gen: 00482 | Mean:   600.0 | Min:   600.0 | Max:   600.0 | Temp:  10.000 | Div:     nan |
| Gen: 00483 | Mean:   600.0 | Min:   600.0 | Max:   600.0 | Temp:  10.000 | Div:     nan |
| Gen: 00484 | Mean:   600.0 | Min:   600.0 | Max:   600.0 | Temp:  10.000 | Div:     nan |
| Gen: 00485 | Mean:   600.0 | Min:   600.0 | Max:   600.0 | Temp:  10.000 | Div:     nan |
| Gen: 00486 | Mean:   600.0 | Min:   600.0 | Max:   600.0 | Temp:  10.000 | Div:     nan |
| Gen: 00487 | Mean:   600.0 | Min:   600.0 | Max:   600.0 | Temp:  10.000 | Div:     nan |
| Gen: 00488 | Mean:   600.0 | Min:   600.0 | Max:   600.0 | Temp:  10.000 | Div:     nan |
| Gen: 00489 | Mean:   600.0 | Min:   600.0 | Max:   600.0 | Temp:  10.000 | Div:     nan |
| Gen: 00490 | Mean:   600.0 | Min:   600.0 | Max:   600.0 | Temp:  10.000 | Div:     nan |
| Gen: 00491 | Mean:   600.0 | Min:   600.0 | Max:   600.0 | Temp:  10.000 | Div:     nan |
| Gen: 00492 | Mean:   600.0 | Min:   600.0 | Max:   600.0 | Temp:  10.000 | Div:     nan |
| Gen: 00493 | Mean:   600.0 | Min:   600.0 | Max:   600.0 | Temp:  10.000 | Div:     nan |
| Gen: 00494 | Mean:   600.0 | Min:   600.0 | Max:   600.0 | Temp:  10.000 | Div:     nan |
| Gen: 00495 | Mean:   600.0 | Min:   600.0 | Max:   600.0 | Temp:  10.000 | Div:     nan |
| Gen: 00496 | Mean:   600.0 | Min:   600.0 | Max:   600.0 | Temp:  10.000 | Div:     nan |
| Gen: 00497 | Mean:   600.0 | Min:   600.0 | Max:   600.0 | Temp:  10.000 | Div:     nan |
| Gen: 00498 | Mean:   600.0 | Min:   600.0 | Max:   600.0 | Temp:  10.000 | Div:     nan |
| Gen: 00499 | Mean:   600.0 | Min:   600.0 | Max:   600.0 | Temp:  10.000 | Div:     nan |
